<TotalObjects> 552
<TotalTextures> 12
<TexturePath> 
../Image/Portal/Portal.dds
../Image/Portal/PortalNormal.dds
../Image/Bridge/Bridge.dds
../Image/Bridge/BridgeNormal.dds
../Image/Fence/Fence.dds
../Image/Fence/FenceNormal.dds
../Image/Building,etc/Building_Texture.dds
../Image/Building,etc/Building_NormalTexture.dds
../Image/Tree/Pinetree.dds
../Image/Tree/Pinetreenormal.dds
../Image/Tree/Pinetree2.dds
../Image/Tree/Pinetreenormal2.dds
<ModelDataStart>
../Model/Map/Portal/Portal.fbx
<Name> Portal
<Position> 9000 510 9000
<Rotation> 0 0 0
<TextureIndex> 0 1
<Pivot> 0 0 0
<Extent> 129.401 6.1595 129.401
../Model/Map/Bridge/Bridge.fbx
<Name> Bridge0
<Position> 5000 430 6000
<Rotation> 0 0 0
<TextureIndex> 2 3
<Pivot> 0 0 0
<Extent> 214.2 167.695 795.6
../Model/Map/Bridge/Bridge.fbx
<Name> Bridge1
<Position> 2800 430 3800
<Rotation> 0 90 0
<TextureIndex> 2 3
<Pivot> 0 0 0
<Extent> 214.2 167.695 795.6
../Model/Map/Fence/Fence.fbx
<Name> Fence
<Position> 8500 510 9000
<Rotation> 0 45 0
<TextureIndex> 4 5
<Pivot> 0 0 -123.295
<Extent> 17.3607 50.8725 123.295
../Model/Map/Fence/Fence.fbx
<Name> Fence
<Position> 8300 510 8800
<Rotation> 0 45 0
<TextureIndex> 4 5
<Pivot> 0 0 -123.295
<Extent> 17.3607 50.8725 123.295
../Model/Map/Fence/Fence.fbx
<Name> Fence
<Position> 8100 510 8600
<Rotation> 0 45 0
<TextureIndex> 4 5
<Pivot> 0 0 -123.295
<Extent> 17.3607 50.8725 123.295
../Model/Map/Fence/Fence.fbx
<Name> Fence
<Position> 7900 510 8400
<Rotation> 0 45 0
<TextureIndex> 4 5
<Pivot> 0 0 -123.295
<Extent> 17.3607 50.8725 123.295
../Model/Map/Fence/Fence.fbx
<Name> Fence
<Position> 7700 510 8200
<Rotation> 0 45 0
<TextureIndex> 4 5
<Pivot> 0 0 -123.295
<Extent> 17.3607 50.8725 123.295
../Model/Map/Fence/Fence.fbx
<Name> Fence
<Position> 9000 510 8500
<Rotation> 0 45 0
<TextureIndex> 4 5
<Pivot> 0 0 -123.295
<Extent> 17.3607 50.8725 123.295
../Model/Map/Fence/Fence.fbx
<Name> Fence
<Position> 8800 510 8300
<Rotation> 0 45 0
<TextureIndex> 4 5
<Pivot> 0 0 -123.295
<Extent> 17.3607 50.8725 123.295
../Model/Map/Fence/Fence.fbx
<Name> Fence
<Position> 8600 510 8100
<Rotation> 0 45 0
<TextureIndex> 4 5
<Pivot> 0 0 -123.295
<Extent> 17.3607 50.8725 123.295
../Model/Map/Fence/Fence.fbx
<Name> Fence
<Position> 8400 510 7900
<Rotation> 0 45 0
<TextureIndex> 4 5
<Pivot> 0 0 -123.295
<Extent> 17.3607 50.8725 123.295
../Model/Map/Fence/Fence.fbx
<Name> Fence
<Position> 8200 510 7700
<Rotation> 0 45 0
<TextureIndex> 4 5
<Pivot> 0 0 -123.295
<Extent> 17.3607 50.8725 123.295
../Model/Map/Building/Building_c.fbx
<Name> Shop
<Position> 5000 510 8000
<Rotation> 0 0 0
<TextureIndex> 6 7
<Pivot> 0 0 506.377
<Extent> 750.808 284.915 506.377
../Model/Map/Building/Building_a.fbx
<Name> House_a
<Position> 2813.1 510 7053.64
<Rotation> 0 -50 0
<TextureIndex> 6 7
<Pivot> -264.564 0 280.699
<Extent> 377.949 209.412 311.888
../Model/Map/Building/Building_b.fbx
<Name> House_b
<Position> 1506.91 510 4780.24
<Rotation> 0 -100 0
<TextureIndex> 6 7
<Pivot> 0 0 311.011
<Extent> 377.949 209.412 311.011
../Model/Map/Building/Building_a.fbx
<Name> House_a
<Position> 5375.99 510 2023.66
<Rotation> 0 -200 0
<TextureIndex> 6 7
<Pivot> -264.564 0 280.699
<Extent> 377.949 209.412 311.888
../Model/Map/Building/Building_b.fbx
<Name> House_b
<Position> 7427.04 510 3236.64
<Rotation> 0 -250 0
<TextureIndex> 6 7
<Pivot> 0 0 311.011
<Extent> 377.949 209.412 311.011
../Model/Map/Building/Building_a.fbx
<Name> House_a
<Position> 7946.86 510 5562.13
<Rotation> 0 -300 0
<TextureIndex> 6 7
<Pivot> -264.564 0 280.699
<Extent> 377.949 209.412 311.888
../Model/Map/Mushroom/Mushroom_a.fbx
<Name> Mushroom
<Position> 9454.09 516 1712.75
<Rotation> 0 0 0
<TextureIndex> 6 7
<Pivot> 0 0 0
<Extent> 22.5847 17.7449 22.0022
../Model/Map/Mushroom/Mushroom_c.fbx
<Name> Mushroom
<Position> 9630.88 516 1701.97
<Rotation> 0 0 0
<TextureIndex> 6 7
<Pivot> 0 0 0
<Extent> 27.2261 27.215 30.6688
../Model/Map/Mushroom/Mushroom_a.fbx
<Name> Mushroom
<Position> 9682.88 516 1836.58
<Rotation> 0 0 0
<TextureIndex> 6 7
<Pivot> 0 0 0
<Extent> 22.5847 17.7449 22.0022
../Model/Map/Mushroom/Mushroom_c.fbx
<Name> Mushroom
<Position> 9534.93 516 1958.99
<Rotation> 0 0 0
<TextureIndex> 6 7
<Pivot> 0 0 0
<Extent> 27.2261 27.215 30.6688
../Model/Map/Mushroom/Mushroom_a.fbx
<Name> Mushroom
<Position> 9280.05 516 2058.03
<Rotation> 0 0 0
<TextureIndex> 6 7
<Pivot> 0 0 0
<Extent> 22.5847 17.7449 22.0022
../Model/Map/Mushroom/Mushroom_c.fbx
<Name> Mushroom
<Position> 9033.07 516 2167.69
<Rotation> 0 0 0
<TextureIndex> 6 7
<Pivot> 0 0 0
<Extent> 27.2261 27.215 30.6688
../Model/Map/Mushroom/Mushroom_a.fbx
<Name> Mushroom
<Position> 9236.51 516 2362.9
<Rotation> 0 0 0
<TextureIndex> 6 7
<Pivot> 0 0 0
<Extent> 22.5847 17.7449 22.0022
../Model/Map/Mushroom/Mushroom_c.fbx
<Name> Mushroom
<Position> 9289.79 516 2569.91
<Rotation> 0 0 0
<TextureIndex> 6 7
<Pivot> 0 0 0
<Extent> 27.2261 27.215 30.6688
../Model/Map/Mushroom/Mushroom_a.fbx
<Name> Mushroom
<Position> 9509.67 516 2458.22
<Rotation> 0 0 0
<TextureIndex> 6 7
<Pivot> 0 0 0
<Extent> 22.5847 17.7449 22.0022
../Model/Map/Mushroom/Mushroom_c.fbx
<Name> Mushroom
<Position> 9706.61 516 2805.56
<Rotation> 0 0 0
<TextureIndex> 6 7
<Pivot> 0 0 0
<Extent> 27.2261 27.215 30.6688
../Model/Map/Mushroom/Mushroom_a.fbx
<Name> Mushroom
<Position> 9606.7 516 2974.18
<Rotation> 0 0 0
<TextureIndex> 6 7
<Pivot> 0 0 0
<Extent> 22.5847 17.7449 22.0022
../Model/Map/Mushroom/Mushroom_c.fbx
<Name> Mushroom
<Position> 9679.07 516 3105.96
<Rotation> 0 0 0
<TextureIndex> 6 7
<Pivot> 0 0 0
<Extent> 27.2261 27.215 30.6688
../Model/Map/Mushroom/Mushroom_a.fbx
<Name> Mushroom
<Position> 9480.56 516 3251.66
<Rotation> 0 0 0
<TextureIndex> 6 7
<Pivot> 0 0 0
<Extent> 22.5847 17.7449 22.0022
../Model/Map/Mushroom/Mushroom_c.fbx
<Name> Mushroom
<Position> 9160.19 516 3120.48
<Rotation> 0 0 0
<TextureIndex> 6 7
<Pivot> 0 0 0
<Extent> 27.2261 27.215 30.6688
../Model/Map/Mushroom/Mushroom_a.fbx
<Name> Mushroom
<Position> 9039.21 516 3307.49
<Rotation> 0 0 0
<TextureIndex> 6 7
<Pivot> 0 0 0
<Extent> 22.5847 17.7449 22.0022
../Model/Map/Mushroom/Mushroom_c.fbx
<Name> Mushroom
<Position> 8786.52 516 3127.32
<Rotation> 0 0 0
<TextureIndex> 6 7
<Pivot> 0 0 0
<Extent> 27.2261 27.215 30.6688
../Model/Map/Mushroom/Mushroom_a.fbx
<Name> Mushroom
<Position> 8428.13 516 2989.33
<Rotation> 0 0 0
<TextureIndex> 6 7
<Pivot> 0 0 0
<Extent> 22.5847 17.7449 22.0022
../Model/Map/Mushroom/Mushroom_c.fbx
<Name> Mushroom
<Position> 8503.31 516 3339.89
<Rotation> 0 0 0
<TextureIndex> 6 7
<Pivot> 0 0 0
<Extent> 27.2261 27.215 30.6688
../Model/Map/Mushroom/Mushroom_a.fbx
<Name> Mushroom
<Position> 8748.71 516 3609.52
<Rotation> 0 0 0
<TextureIndex> 6 7
<Pivot> 0 0 0
<Extent> 22.5847 17.7449 22.0022
../Model/Map/Mushroom/Mushroom_c.fbx
<Name> Mushroom
<Position> 8748.71 516 3909.27
<Rotation> 0 0 0
<TextureIndex> 6 7
<Pivot> 0 0 0
<Extent> 27.2261 27.215 30.6688
../Model/Map/Mushroom/Mushroom_a.fbx
<Name> Mushroom
<Position> 9027.31 516 4175.93
<Rotation> 0 0 0
<TextureIndex> 6 7
<Pivot> 0 0 0
<Extent> 22.5847 17.7449 22.0022
../Model/Map/Mushroom/Mushroom_c.fbx
<Name> Mushroom
<Position> 9274.19 516 3989.72
<Rotation> 0 0 0
<TextureIndex> 6 7
<Pivot> 0 0 0
<Extent> 27.2261 27.215 30.6688
../Model/Map/Mushroom/Mushroom_a.fbx
<Name> Mushroom
<Position> 9500.05 516 4348.22
<Rotation> 0 0 0
<TextureIndex> 6 7
<Pivot> 0 0 0
<Extent> 22.5847 17.7449 22.0022
../Model/Map/Mushroom/Mushroom_c.fbx
<Name> Mushroom
<Position> 9316.25 516 4853.04
<Rotation> 0 0 0
<TextureIndex> 6 7
<Pivot> 0 0 0
<Extent> 27.2261 27.215 30.6688
../Model/Map/Mushroom/Mushroom_a.fbx
<Name> Mushroom
<Position> 9449.78 516 5019.61
<Rotation> 0 0 0
<TextureIndex> 6 7
<Pivot> 0 0 0
<Extent> 22.5847 17.7449 22.0022
../Model/Map/Mushroom/Mushroom_c.fbx
<Name> Mushroom
<Position> 9793.78 516 4804.37
<Rotation> 0 0 0
<TextureIndex> 6 7
<Pivot> 0 0 0
<Extent> 27.2261 27.215 30.6688
../Model/Map/Mushroom/Mushroom_a.fbx
<Name> Mushroom
<Position> 9781.11 516 5908.61
<Rotation> 0 0 0
<TextureIndex> 6 7
<Pivot> 0 0 0
<Extent> 22.5847 17.7449 22.0022
../Model/Map/Mushroom/Mushroom_c.fbx
<Name> Mushroom
<Position> 9496.01 516 5778.37
<Rotation> 0 0 0
<TextureIndex> 6 7
<Pivot> 0 0 0
<Extent> 27.2261 27.215 30.6688
../Model/Map/Mushroom/Mushroom_a.fbx
<Name> Mushroom
<Position> 9211.93 516 5871.78
<Rotation> 0 0 0
<TextureIndex> 6 7
<Pivot> 0 0 0
<Extent> 22.5847 17.7449 22.0022
../Model/Map/Mushroom/Mushroom_c.fbx
<Name> Mushroom
<Position> 9030.5 516 5772.81
<Rotation> 0 0 0
<TextureIndex> 6 7
<Pivot> 0 0 0
<Extent> 27.2261 27.215 30.6688
../Model/Map/Mushroom/Mushroom_a.fbx
<Name> Mushroom
<Position> 8750.59 516 5790.49
<Rotation> 0 0 0
<TextureIndex> 6 7
<Pivot> 0 0 0
<Extent> 22.5847 17.7449 22.0022
../Model/Map/Mushroom/Mushroom_c.fbx
<Name> Mushroom
<Position> 8828.65 516 6047.12
<Rotation> 0 0 0
<TextureIndex> 6 7
<Pivot> 0 0 0
<Extent> 27.2261 27.215 30.6688
../Model/Map/Mushroom/Mushroom_a.fbx
<Name> Mushroom
<Position> 8828.65 516 6509.46
<Rotation> 0 0 0
<TextureIndex> 6 7
<Pivot> 0 0 0
<Extent> 22.5847 17.7449 22.0022
../Model/Map/Mushroom/Mushroom_c.fbx
<Name> Mushroom
<Position> 8984.34 516 6460.74
<Rotation> 0 0 0
<TextureIndex> 6 7
<Pivot> 0 0 0
<Extent> 27.2261 27.215 30.6688
../Model/Map/Mushroom/Mushroom_a.fbx
<Name> Mushroom
<Position> 9291.65 516 6528.97
<Rotation> 0 0 0
<TextureIndex> 6 7
<Pivot> 0 0 0
<Extent> 22.5847 17.7449 22.0022
../Model/Map/Mushroom/Mushroom_c.fbx
<Name> Mushroom
<Position> 9047.67 516 7019.94
<Rotation> 0 0 0
<TextureIndex> 6 7
<Pivot> 0 0 0
<Extent> 27.2261 27.215 30.6688
../Model/Map/Mushroom/Mushroom_a.fbx
<Name> Mushroom
<Position> 9327.46 516 7484.06
<Rotation> 0 0 0
<TextureIndex> 6 7
<Pivot> 0 0 0
<Extent> 22.5847 17.7449 22.0022
../Model/Map/Mushroom/Mushroom_c.fbx
<Name> Mushroom
<Position> 9583.05 516 7700.22
<Rotation> 0 0 0
<TextureIndex> 6 7
<Pivot> 0 0 0
<Extent> 27.2261 27.215 30.6688
../Model/Map/Mushroom/Mushroom_a.fbx
<Name> Mushroom
<Position> 9696.91 516 8388.66
<Rotation> 0 0 0
<TextureIndex> 6 7
<Pivot> 0 0 0
<Extent> 22.5847 17.7449 22.0022
../Model/Map/Mushroom/Mushroom_c.fbx
<Name> Mushroom
<Position> 9383.58 516 8586.42
<Rotation> 0 0 0
<TextureIndex> 6 7
<Pivot> 0 0 0
<Extent> 27.2261 27.215 30.6688
../Model/Map/Mushroom/Mushroom_a.fbx
<Name> Mushroom
<Position> 9608.66 516 9095.32
<Rotation> 0 0 0
<TextureIndex> 6 7
<Pivot> 0 0 0
<Extent> 22.5847 17.7449 22.0022
../Model/Map/Mushroom/Mushroom_c.fbx
<Name> Mushroom
<Position> 9474.15 516 9195.21
<Rotation> 0 0 0
<TextureIndex> 6 7
<Pivot> 0 0 0
<Extent> 27.2261 27.215 30.6688
../Model/Map/Mushroom/Mushroom_a.fbx
<Name> Mushroom
<Position> 9206.16 516 9406.26
<Rotation> 0 0 0
<TextureIndex> 6 7
<Pivot> 0 0 0
<Extent> 22.5847 17.7449 22.0022
../Model/Map/Mushroom/Mushroom_c.fbx
<Name> Mushroom
<Position> 9068.57 516 9502.29
<Rotation> 0 0 0
<TextureIndex> 6 7
<Pivot> 0 0 0
<Extent> 27.2261 27.215 30.6688
../Model/Map/Mushroom/Mushroom_a.fbx
<Name> Mushroom
<Position> 9435.25 516 9663.85
<Rotation> 0 0 0
<TextureIndex> 6 7
<Pivot> 0 0 0
<Extent> 22.5847 17.7449 22.0022
../Model/Map/Mushroom/Mushroom_c.fbx
<Name> Mushroom
<Position> 9758.43 516 9578.92
<Rotation> 0 0 0
<TextureIndex> 6 7
<Pivot> 0 0 0
<Extent> 27.2261 27.215 30.6688
../Model/Map/Mushroom/Mushroom_a.fbx
<Name> Mushroom
<Position> 8921.06 516 9497.44
<Rotation> 0 0 0
<TextureIndex> 6 7
<Pivot> 0 0 0
<Extent> 22.5847 17.7449 22.0022
../Model/Map/Mushroom/Mushroom_c.fbx
<Name> Mushroom
<Position> 8779.51 516 9376.74
<Rotation> 0 0 0
<TextureIndex> 6 7
<Pivot> 0 0 0
<Extent> 27.2261 27.215 30.6688
../Model/Map/Mushroom/Mushroom_a.fbx
<Name> Mushroom
<Position> 8676.41 516 9481.74
<Rotation> 0 0 0
<TextureIndex> 6 7
<Pivot> 0 0 0
<Extent> 22.5847 17.7449 22.0022
../Model/Map/Mushroom/Mushroom_c.fbx
<Name> Mushroom
<Position> 8788.92 516 9245.01
<Rotation> 0 0 0
<TextureIndex> 6 7
<Pivot> 0 0 0
<Extent> 27.2261 27.215 30.6688
../Model/Map/Mushroom/Mushroom_a.fbx
<Name> Mushroom
<Position> 8285.43 516 9379.96
<Rotation> 0 0 0
<TextureIndex> 6 7
<Pivot> 0 0 0
<Extent> 22.5847 17.7449 22.0022
../Model/Map/Mushroom/Mushroom_c.fbx
<Name> Mushroom
<Position> 7943 516 9481.63
<Rotation> 0 0 0
<TextureIndex> 6 7
<Pivot> 0 0 0
<Extent> 27.2261 27.215 30.6688
../Model/Map/Mushroom/Mushroom_a.fbx
<Name> Mushroom
<Position> 8460.07 516 9447.53
<Rotation> 0 0 0
<TextureIndex> 6 7
<Pivot> 0 0 0
<Extent> 22.5847 17.7449 22.0022
../Model/Map/Mushroom/Mushroom_c.fbx
<Name> Mushroom
<Position> 8223.73 516 9703.98
<Rotation> 0 0 0
<TextureIndex> 6 7
<Pivot> 0 0 0
<Extent> 27.2261 27.215 30.6688
../Model/Map/Mushroom/Mushroom_a.fbx
<Name> Mushroom
<Position> 8541.71 516 9703.98
<Rotation> 0 0 0
<TextureIndex> 6 7
<Pivot> 0 0 0
<Extent> 22.5847 17.7449 22.0022
../Model/Map/Mushroom/Mushroom_c.fbx
<Name> Mushroom
<Position> 7719.41 516 9671.71
<Rotation> 0 0 0
<TextureIndex> 6 7
<Pivot> 0 0 0
<Extent> 27.2261 27.215 30.6688
../Model/Map/Mushroom/Mushroom_a.fbx
<Name> Mushroom
<Position> 7613.11 516 9481.83
<Rotation> 0 0 0
<TextureIndex> 6 7
<Pivot> 0 0 0
<Extent> 22.5847 17.7449 22.0022
../Model/Map/Mushroom/Mushroom_c.fbx
<Name> Mushroom
<Position> 7821.29 516 9272.6
<Rotation> 0 0 0
<TextureIndex> 6 7
<Pivot> 0 0 0
<Extent> 27.2261 27.215 30.6688
../Model/Map/Mushroom/Mushroom_a.fbx
<Name> Mushroom
<Position> 7423.32 516 9428.88
<Rotation> 0 0 0
<TextureIndex> 6 7
<Pivot> 0 0 0
<Extent> 22.5847 17.7449 22.0022
../Model/Map/Mushroom/Mushroom_c.fbx
<Name> Mushroom
<Position> 7483.99 516 9628.47
<Rotation> 0 0 0
<TextureIndex> 6 7
<Pivot> 0 0 0
<Extent> 27.2261 27.215 30.6688
../Model/Map/Mushroom/Mushroom_a.fbx
<Name> Mushroom
<Position> 7261.11 515.222 9476.44
<Rotation> 0 0 0
<TextureIndex> 6 7
<Pivot> 0 0 0
<Extent> 22.5847 17.7449 22.0022
../Model/Map/Mushroom/Mushroom_c.fbx
<Name> Mushroom
<Position> 7651.81 516 8847.71
<Rotation> 0 0 0
<TextureIndex> 6 7
<Pivot> 0 0 0
<Extent> 27.2261 27.215 30.6688
../Model/Map/Mushroom/Mushroom_a.fbx
<Name> Mushroom
<Position> 7786.04 516 8675.97
<Rotation> 0 0 0
<TextureIndex> 6 7
<Pivot> 0 0 0
<Extent> 22.5847 17.7449 22.0022
../Model/Map/Mushroom/Mushroom_c.fbx
<Name> Mushroom
<Position> 7937.66 516 8638.15
<Rotation> 0 0 0
<TextureIndex> 6 7
<Pivot> 0 0 0
<Extent> 27.2261 27.215 30.6688
../Model/Map/Mushroom/Mushroom_a.fbx
<Name> Mushroom
<Position> 7937.66 516 8465.91
<Rotation> 0 0 0
<TextureIndex> 6 7
<Pivot> 0 0 0
<Extent> 22.5847 17.7449 22.0022
../Model/Map/Mushroom/Mushroom_c.fbx
<Name> Mushroom
<Position> 7781.81 516 8304.19
<Rotation> 0 0 0
<TextureIndex> 6 7
<Pivot> 0 0 0
<Extent> 27.2261 27.215 30.6688
../Model/Map/Mushroom/Mushroom_a.fbx
<Name> Mushroom
<Position> 7827.12 516 8042.06
<Rotation> 0 0 0
<TextureIndex> 6 7
<Pivot> 0 0 0
<Extent> 22.5847 17.7449 22.0022
../Model/Map/Mushroom/Mushroom_c.fbx
<Name> Mushroom
<Position> 7660.78 516 7889.87
<Rotation> 0 0 0
<TextureIndex> 6 7
<Pivot> 0 0 0
<Extent> 27.2261 27.215 30.6688
../Model/Map/Mushroom/Mushroom_a.fbx
<Name> Mushroom
<Position> 7485.08 516 7784.63
<Rotation> 0 0 0
<TextureIndex> 6 7
<Pivot> 0 0 0
<Extent> 22.5847 17.7449 22.0022
../Model/Map/Mushroom/Mushroom_c.fbx
<Name> Mushroom
<Position> 7329.72 516 7920.05
<Rotation> 0 0 0
<TextureIndex> 6 7
<Pivot> 0 0 0
<Extent> 27.2261 27.215 30.6688
../Model/Map/Mushroom/Mushroom_a.fbx
<Name> Mushroom
<Position> 8504.22 516 4300.84
<Rotation> 0 0 0
<TextureIndex> 6 7
<Pivot> 0 0 0
<Extent> 22.5847 17.7449 22.0022
../Model/Map/Mushroom/Mushroom_c.fbx
<Name> Mushroom
<Position> 8786.99 516 4182.25
<Rotation> 0 0 0
<TextureIndex> 6 7
<Pivot> 0 0 0
<Extent> 27.2261 27.215 30.6688
../Model/Map/Mushroom/Mushroom_a.fbx
<Name> Mushroom
<Position> 8456.42 516 3775.1
<Rotation> 0 0 0
<TextureIndex> 6 7
<Pivot> 0 0 0
<Extent> 22.5847 17.7449 22.0022
../Model/Map/Mushroom/Mushroom_c.fbx
<Name> Mushroom
<Position> 8407.33 516 3574.52
<Rotation> 0 0 0
<TextureIndex> 6 7
<Pivot> 0 0 0
<Extent> 27.2261 27.215 30.6688
../Model/Map/Mushroom/Mushroom_a.fbx
<Name> Mushroom
<Position> 8184.22 516 3774.49
<Rotation> 0 0 0
<TextureIndex> 6 7
<Pivot> 0 0 0
<Extent> 22.5847 17.7449 22.0022
../Model/Map/Mushroom/Mushroom_c.fbx
<Name> Mushroom
<Position> 7796.21 516 3918.9
<Rotation> 0 0 0
<TextureIndex> 6 7
<Pivot> 0 0 0
<Extent> 27.2261 27.215 30.6688
../Model/Map/Mushroom/Mushroom_a.fbx
<Name> Mushroom
<Position> 7796.21 516 4169.88
<Rotation> 0 0 0
<TextureIndex> 6 7
<Pivot> 0 0 0
<Extent> 22.5847 17.7449 22.0022
../Model/Map/Mushroom/Mushroom_c.fbx
<Name> Mushroom
<Position> 7975.82 516 4138.59
<Rotation> 0 0 0
<TextureIndex> 6 7
<Pivot> 0 0 0
<Extent> 27.2261 27.215 30.6688
../Model/Map/Mushroom/Mushroom_a.fbx
<Name> Mushroom
<Position> 8087.02 516 4431.5
<Rotation> 0 0 0
<TextureIndex> 6 7
<Pivot> 0 0 0
<Extent> 22.5847 17.7449 22.0022
../Model/Map/Mushroom/Mushroom_c.fbx
<Name> Mushroom
<Position> 7507.37 516 4431.5
<Rotation> 0 0 0
<TextureIndex> 6 7
<Pivot> 0 0 0
<Extent> 27.2261 27.215 30.6688
../Model/Map/Mushroom/Mushroom_a.fbx
<Name> Mushroom
<Position> 7416.08 516 4111.15
<Rotation> 0 0 0
<TextureIndex> 6 7
<Pivot> 0 0 0
<Extent> 22.5847 17.7449 22.0022
../Model/Map/Mushroom/Mushroom_c.fbx
<Name> Mushroom
<Position> 7157.83 516 4090.59
<Rotation> 0 0 0
<TextureIndex> 6 7
<Pivot> 0 0 0
<Extent> 27.2261 27.215 30.6688
../Model/Map/Mushroom/Mushroom_a.fbx
<Name> Mushroom
<Position> 7174.34 516 4462.27
<Rotation> 0 0 0
<TextureIndex> 6 7
<Pivot> 0 0 0
<Extent> 22.5847 17.7449 22.0022
../Model/Map/Mushroom/Mushroom_c.fbx
<Name> Mushroom
<Position> 8767.09 516 1800.49
<Rotation> 0 0 0
<TextureIndex> 6 7
<Pivot> 0 0 0
<Extent> 27.2261 27.215 30.6688
../Model/Map/Mushroom/Mushroom_a.fbx
<Name> Mushroom
<Position> 8522.33 516 1993.1
<Rotation> 0 0 0
<TextureIndex> 6 7
<Pivot> 0 0 0
<Extent> 22.5847 17.7449 22.0022
../Model/Map/Mushroom/Mushroom_c.fbx
<Name> Mushroom
<Position> 8404.34 516 1755.46
<Rotation> 0 0 0
<TextureIndex> 6 7
<Pivot> 0 0 0
<Extent> 27.2261 27.215 30.6688
../Model/Map/Mushroom/Mushroom_a.fbx
<Name> Mushroom
<Position> 8109.74 516 1779.71
<Rotation> 0 0 0
<TextureIndex> 6 7
<Pivot> 0 0 0
<Extent> 22.5847 17.7449 22.0022
../Model/Map/Mushroom/Mushroom_c.fbx
<Name> Mushroom
<Position> 8257.12 516 1623.08
<Rotation> 0 0 0
<TextureIndex> 6 7
<Pivot> 0 0 0
<Extent> 27.2261 27.215 30.6688
../Model/Map/Mushroom/Mushroom_a.fbx
<Name> Mushroom
<Position> 8780.73 516 1231.31
<Rotation> 0 0 0
<TextureIndex> 6 7
<Pivot> 0 0 0
<Extent> 22.5847 17.7449 22.0022
../Model/Map/Mushroom/Mushroom_c.fbx
<Name> Mushroom
<Position> 8718.55 516 1423.82
<Rotation> 0 0 0
<TextureIndex> 6 7
<Pivot> 0 0 0
<Extent> 27.2261 27.215 30.6688
../Model/Map/Mushroom/Mushroom_a.fbx
<Name> Mushroom
<Position> 9008.5 516 1280.39
<Rotation> 0 0 0
<TextureIndex> 6 7
<Pivot> 0 0 0
<Extent> 22.5847 17.7449 22.0022
../Model/Map/Mushroom/Mushroom_c.fbx
<Name> Mushroom
<Position> 8869.55 516 751.699
<Rotation> 0 0 0
<TextureIndex> 6 7
<Pivot> 0 0 0
<Extent> 27.2261 27.215 30.6688
../Model/Map/Mushroom/Mushroom_a.fbx
<Name> Mushroom
<Position> 8685.13 516 817.723
<Rotation> 0 0 0
<TextureIndex> 6 7
<Pivot> 0 0 0
<Extent> 22.5847 17.7449 22.0022
../Model/Map/Mushroom/Mushroom_c.fbx
<Name> Mushroom
<Position> 9070.97 516 191.745
<Rotation> 0 0 0
<TextureIndex> 6 7
<Pivot> 0 0 0
<Extent> 27.2261 27.215 30.6688
../Model/Map/Mushroom/Mushroom_a.fbx
<Name> Mushroom
<Position> 9248.93 516 483.424
<Rotation> 0 0 0
<TextureIndex> 6 7
<Pivot> 0 0 0
<Extent> 22.5847 17.7449 22.0022
../Model/Map/Mushroom/Mushroom_c.fbx
<Name> Mushroom
<Position> 9550.69 516 716.51
<Rotation> 0 0 0
<TextureIndex> 6 7
<Pivot> 0 0 0
<Extent> 27.2261 27.215 30.6688
../Model/Map/Mushroom/Mushroom_a.fbx
<Name> Mushroom
<Position> 9766.99 516 521.815
<Rotation> 0 0 0
<TextureIndex> 6 7
<Pivot> 0 0 0
<Extent> 22.5847 17.7449 22.0022
../Model/Map/Mushroom/Mushroom_c.fbx
<Name> Mushroom
<Position> 9815.59 516 335.649
<Rotation> 0 0 0
<TextureIndex> 6 7
<Pivot> 0 0 0
<Extent> 27.2261 27.215 30.6688
../Model/Map/Mushroom/Mushroom_a.fbx
<Name> Mushroom
<Position> 9685.7 516 174.485
<Rotation> 0 0 0
<TextureIndex> 6 7
<Pivot> 0 0 0
<Extent> 22.5847 17.7449 22.0022
../Model/Map/Mushroom/Mushroom_c.fbx
<Name> Mushroom
<Position> 9123.38 516 682.347
<Rotation> 0 0 0
<TextureIndex> 6 7
<Pivot> 0 0 0
<Extent> 27.2261 27.215 30.6688
../Model/Map/Mushroom/Mushroom_a.fbx
<Name> Mushroom
<Position> 8626.72 516 500.896
<Rotation> 0 0 0
<TextureIndex> 6 7
<Pivot> 0 0 0
<Extent> 22.5847 17.7449 22.0022
../Model/Map/Mushroom/Mushroom_c.fbx
<Name> Mushroom
<Position> 8455.29 516 350.28
<Rotation> 0 0 0
<TextureIndex> 6 7
<Pivot> 0 0 0
<Extent> 27.2261 27.215 30.6688
../Model/Map/Mushroom/Mushroom_a.fbx
<Name> Mushroom
<Position> 8107.17 516 172.689
<Rotation> 0 0 0
<TextureIndex> 6 7
<Pivot> 0 0 0
<Extent> 22.5847 17.7449 22.0022
../Model/Map/Mushroom/Mushroom_c.fbx
<Name> Mushroom
<Position> 7956.28 516 336.277
<Rotation> 0 0 0
<TextureIndex> 6 7
<Pivot> 0 0 0
<Extent> 27.2261 27.215 30.6688
../Model/Map/Mushroom/Mushroom_a.fbx
<Name> Mushroom
<Position> 7682.53 516 604.717
<Rotation> 0 0 0
<TextureIndex> 6 7
<Pivot> 0 0 0
<Extent> 22.5847 17.7449 22.0022
../Model/Map/Mushroom/Mushroom_c.fbx
<Name> Mushroom
<Position> 7807.8 516 900.655
<Rotation> 0 0 0
<TextureIndex> 6 7
<Pivot> 0 0 0
<Extent> 27.2261 27.215 30.6688
../Model/Map/Mushroom/Mushroom_a.fbx
<Name> Mushroom
<Position> 7267.75 516 780.125
<Rotation> 0 0 0
<TextureIndex> 6 7
<Pivot> 0 0 0
<Extent> 22.5847 17.7449 22.0022
../Model/Map/Mushroom/Mushroom_c.fbx
<Name> Mushroom
<Position> 7256.78 516 669.046
<Rotation> 0 0 0
<TextureIndex> 6 7
<Pivot> 0 0 0
<Extent> 27.2261 27.215 30.6688
../Model/Map/Mushroom/Mushroom_a.fbx
<Name> Mushroom
<Position> 7157.8 516 511.558
<Rotation> 0 0 0
<TextureIndex> 6 7
<Pivot> 0 0 0
<Extent> 22.5847 17.7449 22.0022
../Model/Map/Mushroom/Mushroom_c.fbx
<Name> Mushroom
<Position> 6963.71 516 349.659
<Rotation> 0 0 0
<TextureIndex> 6 7
<Pivot> 0 0 0
<Extent> 27.2261 27.215 30.6688
../Model/Map/Mushroom/Mushroom_a.fbx
<Name> Mushroom
<Position> 7142.39 516 226.155
<Rotation> 0 0 0
<TextureIndex> 6 7
<Pivot> 0 0 0
<Extent> 22.5847 17.7449 22.0022
../Model/Map/Mushroom/Mushroom_c.fbx
<Name> Mushroom
<Position> 6756.38 516 319.267
<Rotation> 0 0 0
<TextureIndex> 6 7
<Pivot> 0 0 0
<Extent> 27.2261 27.215 30.6688
../Model/Map/Mushroom/Mushroom_a.fbx
<Name> Mushroom
<Position> 6611.05 516 481.037
<Rotation> 0 0 0
<TextureIndex> 6 7
<Pivot> 0 0 0
<Extent> 22.5847 17.7449 22.0022
../Model/Map/Mushroom/Mushroom_c.fbx
<Name> Mushroom
<Position> 6747.57 516 934.324
<Rotation> 0 0 0
<TextureIndex> 6 7
<Pivot> 0 0 0
<Extent> 27.2261 27.215 30.6688
../Model/Map/Mushroom/Mushroom_a.fbx
<Name> Mushroom
<Position> 6886.88 516 1104.72
<Rotation> 0 0 0
<TextureIndex> 6 7
<Pivot> 0 0 0
<Extent> 22.5847 17.7449 22.0022
../Model/Map/Mushroom/Mushroom_c.fbx
<Name> Mushroom
<Position> 7248.87 516 1356.67
<Rotation> 0 0 0
<TextureIndex> 6 7
<Pivot> 0 0 0
<Extent> 27.2261 27.215 30.6688
../Model/Map/Mushroom/Mushroom_a.fbx
<Name> Mushroom
<Position> 7291.49 516 1816.44
<Rotation> 0 0 0
<TextureIndex> 6 7
<Pivot> 0 0 0
<Extent> 22.5847 17.7449 22.0022
../Model/Map/Mushroom/Mushroom_c.fbx
<Name> Mushroom
<Position> 6971 516 1907.65
<Rotation> 0 0 0
<TextureIndex> 6 7
<Pivot> 0 0 0
<Extent> 27.2261 27.215 30.6688
../Model/Map/Mushroom/Mushroom_a.fbx
<Name> Mushroom
<Position> 6824.17 516 1770.17
<Rotation> 0 0 0
<TextureIndex> 6 7
<Pivot> 0 0 0
<Extent> 22.5847 17.7449 22.0022
../Model/Map/Mushroom/Mushroom_c.fbx
<Name> Mushroom
<Position> 6656.44 516 1885.44
<Rotation> 0 0 0
<TextureIndex> 6 7
<Pivot> 0 0 0
<Extent> 27.2261 27.215 30.6688
../Model/Map/Mushroom/Mushroom_a.fbx
<Name> Mushroom
<Position> 6255.7 516 1461.15
<Rotation> 0 0 0
<TextureIndex> 6 7
<Pivot> 0 0 0
<Extent> 22.5847 17.7449 22.0022
../Model/Map/Mushroom/Mushroom_c.fbx
<Name> Mushroom
<Position> 6160.07 516 1381.83
<Rotation> 0 0 0
<TextureIndex> 6 7
<Pivot> 0 0 0
<Extent> 27.2261 27.215 30.6688
../Model/Map/Mushroom/Mushroom_a.fbx
<Name> Mushroom
<Position> 6276.89 516 1243.8
<Rotation> 0 0 0
<TextureIndex> 6 7
<Pivot> 0 0 0
<Extent> 22.5847 17.7449 22.0022
../Model/Map/Mushroom/Mushroom_c.fbx
<Name> Mushroom
<Position> 6429.83 516 1125.55
<Rotation> 0 0 0
<TextureIndex> 6 7
<Pivot> 0 0 0
<Extent> 27.2261 27.215 30.6688
../Model/Map/Mushroom/Mushroom_a.fbx
<Name> Mushroom
<Position> 6259.36 516 876.965
<Rotation> 0 0 0
<TextureIndex> 6 7
<Pivot> 0 0 0
<Extent> 22.5847 17.7449 22.0022
../Model/Map/Mushroom/Mushroom_c.fbx
<Name> Mushroom
<Position> 6048.88 516 752.473
<Rotation> 0 0 0
<TextureIndex> 6 7
<Pivot> 0 0 0
<Extent> 27.2261 27.215 30.6688
../Model/Map/Mushroom/Mushroom_a.fbx
<Name> Mushroom
<Position> 6168.29 516 297.692
<Rotation> 0 0 0
<TextureIndex> 6 7
<Pivot> 0 0 0
<Extent> 22.5847 17.7449 22.0022
../Model/Map/Mushroom/Mushroom_c.fbx
<Name> Mushroom
<Position> 6002.33 516 148.139
<Rotation> 0 0 0
<TextureIndex> 6 7
<Pivot> 0 0 0
<Extent> 27.2261 27.215 30.6688
../Model/Map/Mushroom/Mushroom_a.fbx
<Name> Mushroom
<Position> 5884.23 516 293.061
<Rotation> 0 0 0
<TextureIndex> 6 7
<Pivot> 0 0 0
<Extent> 22.5847 17.7449 22.0022
../Model/Map/Mushroom/Mushroom_c.fbx
<Name> Mushroom
<Position> 5676.4 516 677.143
<Rotation> 0 0 0
<TextureIndex> 6 7
<Pivot> 0 0 0
<Extent> 27.2261 27.215 30.6688
../Model/Map/Mushroom/Mushroom_a.fbx
<Name> Mushroom
<Position> 5411.83 516 688.128
<Rotation> 0 0 0
<TextureIndex> 6 7
<Pivot> 0 0 0
<Extent> 22.5847 17.7449 22.0022
../Model/Map/Mushroom/Mushroom_c.fbx
<Name> Mushroom
<Position> 5411.83 516 915.373
<Rotation> 0 0 0
<TextureIndex> 6 7
<Pivot> 0 0 0
<Extent> 27.2261 27.215 30.6688
../Model/Map/Mushroom/Mushroom_a.fbx
<Name> Mushroom
<Position> 5191.97 516 915.373
<Rotation> 0 0 0
<TextureIndex> 6 7
<Pivot> 0 0 0
<Extent> 22.5847 17.7449 22.0022
../Model/Map/Mushroom/Mushroom_c.fbx
<Name> Mushroom
<Position> 5084.64 516 760.266
<Rotation> 0 0 0
<TextureIndex> 6 7
<Pivot> 0 0 0
<Extent> 27.2261 27.215 30.6688
../Model/Map/Mushroom/Mushroom_a.fbx
<Name> Mushroom
<Position> 4961.57 516 739.783
<Rotation> 0 0 0
<TextureIndex> 6 7
<Pivot> 0 0 0
<Extent> 22.5847 17.7449 22.0022
../Model/Map/Mushroom/Mushroom_c.fbx
<Name> Mushroom
<Position> 4824.77 516 609.428
<Rotation> 0 0 0
<TextureIndex> 6 7
<Pivot> 0 0 0
<Extent> 27.2261 27.215 30.6688
../Model/Map/Mushroom/Mushroom_a.fbx
<Name> Mushroom
<Position> 4687.25 516 753.508
<Rotation> 0 0 0
<TextureIndex> 6 7
<Pivot> 0 0 0
<Extent> 22.5847 17.7449 22.0022
../Model/Map/Mushroom/Mushroom_c.fbx
<Name> Mushroom
<Position> 4741.05 516 398.022
<Rotation> 0 0 0
<TextureIndex> 6 7
<Pivot> 0 0 0
<Extent> 27.2261 27.215 30.6688
../Model/Map/Mushroom/Mushroom_a.fbx
<Name> Mushroom
<Position> 4910.28 516 251.732
<Rotation> 0 0 0
<TextureIndex> 6 7
<Pivot> 0 0 0
<Extent> 22.5847 17.7449 22.0022
../Model/Map/Mushroom/Mushroom_c.fbx
<Name> Mushroom
<Position> 5365.98 516 149.549
<Rotation> 0 0 0
<TextureIndex> 6 7
<Pivot> 0 0 0
<Extent> 27.2261 27.215 30.6688
../Model/Map/Mushroom/Mushroom_a.fbx
<Name> Mushroom
<Position> 4609.7 516 149.549
<Rotation> 0 0 0
<TextureIndex> 6 7
<Pivot> 0 0 0
<Extent> 22.5847 17.7449 22.0022
../Model/Map/Mushroom/Mushroom_c.fbx
<Name> Mushroom
<Position> 4396.7 516 502.847
<Rotation> 0 0 0
<TextureIndex> 6 7
<Pivot> 0 0 0
<Extent> 27.2261 27.215 30.6688
../Model/Map/Mushroom/Mushroom_a.fbx
<Name> Mushroom
<Position> 4175.58 516 413.802
<Rotation> 0 0 0
<TextureIndex> 6 7
<Pivot> 0 0 0
<Extent> 22.5847 17.7449 22.0022
../Model/Map/Mushroom/Mushroom_c.fbx
<Name> Mushroom
<Position> 3968.4 516 577.171
<Rotation> 0 0 0
<TextureIndex> 6 7
<Pivot> 0 0 0
<Extent> 27.2261 27.215 30.6688
../Model/Map/Mushroom/Mushroom_a.fbx
<Name> Mushroom
<Position> 3686.13 516 576.844
<Rotation> 0 0 0
<TextureIndex> 6 7
<Pivot> 0 0 0
<Extent> 22.5847 17.7449 22.0022
../Model/Map/Mushroom/Mushroom_c.fbx
<Name> Mushroom
<Position> 3994.78 516 104.21
<Rotation> 0 0 0
<TextureIndex> 6 7
<Pivot> 0 0 0
<Extent> 27.2261 27.215 30.6688
../Model/Map/Mushroom/Mushroom_a.fbx
<Name> Mushroom
<Position> 3725.92 516 109.448
<Rotation> 0 0 0
<TextureIndex> 6 7
<Pivot> 0 0 0
<Extent> 22.5847 17.7449 22.0022
../Model/Map/Mushroom/Mushroom_c.fbx
<Name> Mushroom
<Position> 4277.89 516 1489.79
<Rotation> 0 0 0
<TextureIndex> 6 7
<Pivot> 0 0 0
<Extent> 27.2261 27.215 30.6688
../Model/Map/Mushroom/Mushroom_a.fbx
<Name> Mushroom
<Position> 3980.72 516 1349.71
<Rotation> 0 0 0
<TextureIndex> 6 7
<Pivot> 0 0 0
<Extent> 22.5847 17.7449 22.0022
../Model/Map/Mushroom/Mushroom_c.fbx
<Name> Mushroom
<Position> 3764.91 516 1349.71
<Rotation> 0 0 0
<TextureIndex> 6 7
<Pivot> 0 0 0
<Extent> 27.2261 27.215 30.6688
../Model/Map/Mushroom/Mushroom_a.fbx
<Name> Mushroom
<Position> 4020.56 516 1155.2
<Rotation> 0 0 0
<TextureIndex> 6 7
<Pivot> 0 0 0
<Extent> 22.5847 17.7449 22.0022
../Model/Map/Mushroom/Mushroom_c.fbx
<Name> Mushroom
<Position> 4477.78 516 1183.66
<Rotation> 0 0 0
<TextureIndex> 6 7
<Pivot> 0 0 0
<Extent> 27.2261 27.215 30.6688
../Model/Map/Mushroom/Mushroom_a.fbx
<Name> Mushroom
<Position> 5485.16 516 2732.51
<Rotation> 0 0 0
<TextureIndex> 6 7
<Pivot> 0 0 0
<Extent> 22.5847 17.7449 22.0022
../Model/Map/Mushroom/Mushroom_c.fbx
<Name> Mushroom
<Position> 5641.31 516 2637.34
<Rotation> 0 0 0
<TextureIndex> 6 7
<Pivot> 0 0 0
<Extent> 27.2261 27.215 30.6688
../Model/Map/Mushroom/Mushroom_a.fbx
<Name> Mushroom
<Position> 5987.33 516 3606.11
<Rotation> 0 0 0
<TextureIndex> 6 7
<Pivot> 0 0 0
<Extent> 22.5847 17.7449 22.0022
../Model/Map/Mushroom/Mushroom_c.fbx
<Name> Mushroom
<Position> 5858.66 516 3767.08
<Rotation> 0 0 0
<TextureIndex> 6 7
<Pivot> 0 0 0
<Extent> 27.2261 27.215 30.6688
../Model/Map/Mushroom/Mushroom_a.fbx
<Name> Mushroom
<Position> 6072.55 516 3861.93
<Rotation> 0 0 0
<TextureIndex> 6 7
<Pivot> 0 0 0
<Extent> 22.5847 17.7449 22.0022
../Model/Map/Mushroom/Mushroom_c.fbx
<Name> Mushroom
<Position> 6182.93 516 3783.28
<Rotation> 0 0 0
<TextureIndex> 6 7
<Pivot> 0 0 0
<Extent> 27.2261 27.215 30.6688
../Model/Map/Mushroom/Mushroom_a.fbx
<Name> Mushroom
<Position> 5831.11 516 4066.63
<Rotation> 0 0 0
<TextureIndex> 6 7
<Pivot> 0 0 0
<Extent> 22.5847 17.7449 22.0022
../Model/Map/Mushroom/Mushroom_c.fbx
<Name> Mushroom
<Position> 5636.01 516 4026.11
<Rotation> 0 0 0
<TextureIndex> 6 7
<Pivot> 0 0 0
<Extent> 27.2261 27.215 30.6688
../Model/Map/Mushroom/Mushroom_a.fbx
<Name> Mushroom
<Position> 5753.71 516 4304.95
<Rotation> 0 0 0
<TextureIndex> 6 7
<Pivot> 0 0 0
<Extent> 22.5847 17.7449 22.0022
../Model/Map/Mushroom/Mushroom_c.fbx
<Name> Mushroom
<Position> 5467.08 516 4528.7
<Rotation> 0 0 0
<TextureIndex> 6 7
<Pivot> 0 0 0
<Extent> 27.2261 27.215 30.6688
../Model/Map/Mushroom/Mushroom_a.fbx
<Name> Mushroom
<Position> 5305.83 516 4478.88
<Rotation> 0 0 0
<TextureIndex> 6 7
<Pivot> 0 0 0
<Extent> 22.5847 17.7449 22.0022
../Model/Map/Mushroom/Mushroom_c.fbx
<Name> Mushroom
<Position> 5192.98 516 4607.72
<Rotation> 0 0 0
<TextureIndex> 6 7
<Pivot> 0 0 0
<Extent> 27.2261 27.215 30.6688
../Model/Map/Mushroom/Mushroom_a.fbx
<Name> Mushroom
<Position> 5334.9 516 4827.13
<Rotation> 0 0 0
<TextureIndex> 6 7
<Pivot> 0 0 0
<Extent> 22.5847 17.7449 22.0022
../Model/Map/Mushroom/Mushroom_c.fbx
<Name> Mushroom
<Position> 4895.15 516 4058.39
<Rotation> 0 0 0
<TextureIndex> 6 7
<Pivot> 0 0 0
<Extent> 27.2261 27.215 30.6688
../Model/Map/Mushroom/Mushroom_a.fbx
<Name> Mushroom
<Position> 4895.15 516 3839.34
<Rotation> 0 0 0
<TextureIndex> 6 7
<Pivot> 0 0 0
<Extent> 22.5847 17.7449 22.0022
../Model/Map/Mushroom/Mushroom_c.fbx
<Name> Mushroom
<Position> 4698.5 516 3949.2
<Rotation> 0 0 0
<TextureIndex> 6 7
<Pivot> 0 0 0
<Extent> 27.2261 27.215 30.6688
../Model/Map/Mushroom/Mushroom_a.fbx
<Name> Mushroom
<Position> 5295.6 516 3835.18
<Rotation> 0 0 0
<TextureIndex> 6 7
<Pivot> 0 0 0
<Extent> 22.5847 17.7449 22.0022
../Model/Map/Mushroom/Mushroom_c.fbx
<Name> Mushroom
<Position> 5417.23 516 3713.66
<Rotation> 0 0 0
<TextureIndex> 6 7
<Pivot> 0 0 0
<Extent> 27.2261 27.215 30.6688
../Model/Map/Mushroom/Mushroom_a.fbx
<Name> Mushroom
<Position> 5542.7 516 3806.7
<Rotation> 0 0 0
<TextureIndex> 6 7
<Pivot> 0 0 0
<Extent> 22.5847 17.7449 22.0022
../Model/Map/Mushroom/Mushroom_c.fbx
<Name> Mushroom
<Position> 5049.64 516 3374.81
<Rotation> 0 0 0
<TextureIndex> 6 7
<Pivot> 0 0 0
<Extent> 27.2261 27.215 30.6688
../Model/Map/Mushroom/Mushroom_a.fbx
<Name> Mushroom
<Position> 5233.15 516 3186.38
<Rotation> 0 0 0
<TextureIndex> 6 7
<Pivot> 0 0 0
<Extent> 22.5847 17.7449 22.0022
../Model/Map/Mushroom/Mushroom_c.fbx
<Name> Mushroom
<Position> 4945.27 516 2965.87
<Rotation> 0 0 0
<TextureIndex> 6 7
<Pivot> 0 0 0
<Extent> 27.2261 27.215 30.6688
../Model/Map/Mushroom/Mushroom_a.fbx
<Name> Mushroom
<Position> 4532.13 516 3490.79
<Rotation> 0 0 0
<TextureIndex> 6 7
<Pivot> 0 0 0
<Extent> 22.5847 17.7449 22.0022
../Model/Map/Mushroom/Mushroom_c.fbx
<Name> Mushroom
<Position> 4164.36 516 3200.87
<Rotation> 0 0 0
<TextureIndex> 6 7
<Pivot> 0 0 0
<Extent> 27.2261 27.215 30.6688
../Model/Map/Mushroom/Mushroom_a.fbx
<Name> Mushroom
<Position> 1824.64 516 3235.98
<Rotation> 0 0 0
<TextureIndex> 6 7
<Pivot> 0 0 0
<Extent> 22.5847 17.7449 22.0022
../Model/Map/Mushroom/Mushroom_c.fbx
<Name> Mushroom
<Position> 1626.38 516 3094.73
<Rotation> 0 0 0
<TextureIndex> 6 7
<Pivot> 0 0 0
<Extent> 27.2261 27.215 30.6688
../Model/Map/Mushroom/Mushroom_a.fbx
<Name> Mushroom
<Position> 1414.06 516 3202.69
<Rotation> 0 0 0
<TextureIndex> 6 7
<Pivot> 0 0 0
<Extent> 22.5847 17.7449 22.0022
../Model/Map/Mushroom/Mushroom_c.fbx
<Name> Mushroom
<Position> 1083.83 516 3078.9
<Rotation> 0 0 0
<TextureIndex> 6 7
<Pivot> 0 0 0
<Extent> 27.2261 27.215 30.6688
../Model/Map/Mushroom/Mushroom_a.fbx
<Name> Mushroom
<Position> 1151.41 516 2891.07
<Rotation> 0 0 0
<TextureIndex> 6 7
<Pivot> 0 0 0
<Extent> 22.5847 17.7449 22.0022
../Model/Map/Mushroom/Mushroom_c.fbx
<Name> Mushroom
<Position> 1306.12 516 2777.67
<Rotation> 0 0 0
<TextureIndex> 6 7
<Pivot> 0 0 0
<Extent> 27.2261 27.215 30.6688
../Model/Map/Mushroom/Mushroom_a.fbx
<Name> Mushroom
<Position> 1563.98 516 2524.26
<Rotation> 0 0 0
<TextureIndex> 6 7
<Pivot> 0 0 0
<Extent> 22.5847 17.7449 22.0022
../Model/Map/Mushroom/Mushroom_c.fbx
<Name> Mushroom
<Position> 1579.71 516 2251.81
<Rotation> 0 0 0
<TextureIndex> 6 7
<Pivot> 0 0 0
<Extent> 27.2261 27.215 30.6688
../Model/Map/Mushroom/Mushroom_a.fbx
<Name> Mushroom
<Position> 1706.2 516 1982.69
<Rotation> 0 0 0
<TextureIndex> 6 7
<Pivot> 0 0 0
<Extent> 22.5847 17.7449 22.0022
../Model/Map/Mushroom/Mushroom_c.fbx
<Name> Mushroom
<Position> 1423.72 516 1842.66
<Rotation> 0 0 0
<TextureIndex> 6 7
<Pivot> 0 0 0
<Extent> 27.2261 27.215 30.6688
../Model/Map/Mushroom/Mushroom_a.fbx
<Name> Mushroom
<Position> 1155.98 516 1974.54
<Rotation> 0 0 0
<TextureIndex> 6 7
<Pivot> 0 0 0
<Extent> 22.5847 17.7449 22.0022
../Model/Map/Mushroom/Mushroom_c.fbx
<Name> Mushroom
<Position> 493.195 516 2542.22
<Rotation> 0 0 0
<TextureIndex> 6 7
<Pivot> 0 0 0
<Extent> 27.2261 27.215 30.6688
../Model/Map/Mushroom/Mushroom_a.fbx
<Name> Mushroom
<Position> 838.463 516 2676.56
<Rotation> 0 0 0
<TextureIndex> 6 7
<Pivot> 0 0 0
<Extent> 22.5847 17.7449 22.0022
../Model/Map/Mushroom/Mushroom_c.fbx
<Name> Mushroom
<Position> 986.644 516 3173.44
<Rotation> 0 0 0
<TextureIndex> 6 7
<Pivot> 0 0 0
<Extent> 27.2261 27.215 30.6688
../Model/Map/Mushroom/Mushroom_a.fbx
<Name> Mushroom
<Position> 733.466 516 3400.68
<Rotation> 0 0 0
<TextureIndex> 6 7
<Pivot> 0 0 0
<Extent> 22.5847 17.7449 22.0022
../Model/Map/Mushroom/Mushroom_c.fbx
<Name> Mushroom
<Position> 363.753 516 3385.37
<Rotation> 0 0 0
<TextureIndex> 6 7
<Pivot> 0 0 0
<Extent> 27.2261 27.215 30.6688
../Model/Map/Mushroom/Mushroom_a.fbx
<Name> Mushroom
<Position> 287.29 516 3234.46
<Rotation> 0 0 0
<TextureIndex> 6 7
<Pivot> 0 0 0
<Extent> 22.5847 17.7449 22.0022
../Model/Map/Mushroom/Mushroom_c.fbx
<Name> Mushroom
<Position> 87.4777 516 2876.33
<Rotation> 0 0 0
<TextureIndex> 6 7
<Pivot> 0 0 0
<Extent> 27.2261 27.215 30.6688
../Model/Map/Mushroom/Mushroom_a.fbx
<Name> Mushroom
<Position> 304.737 516 2553.13
<Rotation> 0 0 0
<TextureIndex> 6 7
<Pivot> 0 0 0
<Extent> 22.5847 17.7449 22.0022
../Model/Map/Mushroom/Mushroom_c.fbx
<Name> Mushroom
<Position> 290.645 516 2131.17
<Rotation> 0 0 0
<TextureIndex> 6 7
<Pivot> 0 0 0
<Extent> 27.2261 27.215 30.6688
../Model/Map/Mushroom/Mushroom_a.fbx
<Name> Mushroom
<Position> 308.679 516 1749.28
<Rotation> 0 0 0
<TextureIndex> 6 7
<Pivot> 0 0 0
<Extent> 22.5847 17.7449 22.0022
../Model/Map/Mushroom/Mushroom_c.fbx
<Name> Mushroom
<Position> 155.824 516 1620.46
<Rotation> 0 0 0
<TextureIndex> 6 7
<Pivot> 0 0 0
<Extent> 27.2261 27.215 30.6688
../Model/Map/Mushroom/Mushroom_a.fbx
<Name> Mushroom
<Position> 449.115 516 1476.56
<Rotation> 0 0 0
<TextureIndex> 6 7
<Pivot> 0 0 0
<Extent> 22.5847 17.7449 22.0022
../Model/Map/Mushroom/Mushroom_c.fbx
<Name> Mushroom
<Position> 477 516 1309.06
<Rotation> 0 0 0
<TextureIndex> 6 7
<Pivot> 0 0 0
<Extent> 27.2261 27.215 30.6688
../Model/Map/Mushroom/Mushroom_a.fbx
<Name> Mushroom
<Position> 644.041 516 1168.41
<Rotation> 0 0 0
<TextureIndex> 6 7
<Pivot> 0 0 0
<Extent> 22.5847 17.7449 22.0022
../Model/Map/Mushroom/Mushroom_c.fbx
<Name> Mushroom
<Position> 429.942 516 1069.94
<Rotation> 0 0 0
<TextureIndex> 6 7
<Pivot> 0 0 0
<Extent> 27.2261 27.215 30.6688
../Model/Map/Mushroom/Mushroom_a.fbx
<Name> Mushroom
<Position> 417.027 516 572.566
<Rotation> 0 0 0
<TextureIndex> 6 7
<Pivot> 0 0 0
<Extent> 22.5847 17.7449 22.0022
../Model/Map/Mushroom/Mushroom_c.fbx
<Name> Mushroom
<Position> 675.941 516 645.187
<Rotation> 0 0 0
<TextureIndex> 6 7
<Pivot> 0 0 0
<Extent> 27.2261 27.215 30.6688
../Model/Map/Mushroom/Mushroom_a.fbx
<Name> Mushroom
<Position> 782.562 516 423.447
<Rotation> 0 0 0
<TextureIndex> 6 7
<Pivot> 0 0 0
<Extent> 22.5847 17.7449 22.0022
../Model/Map/Mushroom/Mushroom_c.fbx
<Name> Mushroom
<Position> 700.869 516 165.763
<Rotation> 0 0 0
<TextureIndex> 6 7
<Pivot> 0 0 0
<Extent> 27.2261 27.215 30.6688
../Model/Map/Mushroom/Mushroom_a.fbx
<Name> Mushroom
<Position> 393.946 516 107.209
<Rotation> 0 0 0
<TextureIndex> 6 7
<Pivot> 0 0 0
<Extent> 22.5847 17.7449 22.0022
../Model/Map/Mushroom/Mushroom_c.fbx
<Name> Mushroom
<Position> 1319.81 516 135.944
<Rotation> 0 0 0
<TextureIndex> 6 7
<Pivot> 0 0 0
<Extent> 27.2261 27.215 30.6688
../Model/Map/Mushroom/Mushroom_a.fbx
<Name> Mushroom
<Position> 893.887 516 3963.88
<Rotation> 0 0 0
<TextureIndex> 6 7
<Pivot> 0 0 0
<Extent> 22.5847 17.7449 22.0022
../Model/Map/Mushroom/Mushroom_c.fbx
<Name> Mushroom
<Position> 532.555 516 4286.72
<Rotation> 0 0 0
<TextureIndex> 6 7
<Pivot> 0 0 0
<Extent> 27.2261 27.215 30.6688
../Model/Map/Mushroom/Mushroom_a.fbx
<Name> Mushroom
<Position> 577.274 516 4582.82
<Rotation> 0 0 0
<TextureIndex> 6 7
<Pivot> 0 0 0
<Extent> 22.5847 17.7449 22.0022
../Model/Map/Mushroom/Mushroom_c.fbx
<Name> Mushroom
<Position> 416.233 516 4729.57
<Rotation> 0 0 0
<TextureIndex> 6 7
<Pivot> 0 0 0
<Extent> 27.2261 27.215 30.6688
../Model/Map/Mushroom/Mushroom_a.fbx
<Name> Mushroom
<Position> 416.233 516 4953.42
<Rotation> 0 0 0
<TextureIndex> 6 7
<Pivot> 0 0 0
<Extent> 22.5847 17.7449 22.0022
../Model/Map/Mushroom/Mushroom_c.fbx
<Name> Mushroom
<Position> 416.233 516 5274.99
<Rotation> 0 0 0
<TextureIndex> 6 7
<Pivot> 0 0 0
<Extent> 27.2261 27.215 30.6688
../Model/Map/Mushroom/Mushroom_a.fbx
<Name> Mushroom
<Position> 136.24 516 5150.34
<Rotation> 0 0 0
<TextureIndex> 6 7
<Pivot> 0 0 0
<Extent> 22.5847 17.7449 22.0022
../Model/Map/Mushroom/Mushroom_c.fbx
<Name> Mushroom
<Position> 136.24 516 4719.62
<Rotation> 0 0 0
<TextureIndex> 6 7
<Pivot> 0 0 0
<Extent> 27.2261 27.215 30.6688
../Model/Map/Mushroom/Mushroom_a.fbx
<Name> Mushroom
<Position> 623.75 516 5213.94
<Rotation> 0 0 0
<TextureIndex> 6 7
<Pivot> 0 0 0
<Extent> 22.5847 17.7449 22.0022
../Model/Map/Mushroom/Mushroom_c.fbx
<Name> Mushroom
<Position> 778.03 516 5519.11
<Rotation> 0 0 0
<TextureIndex> 6 7
<Pivot> 0 0 0
<Extent> 27.2261 27.215 30.6688
../Model/Map/Mushroom/Mushroom_a.fbx
<Name> Mushroom
<Position> 502.65 516 5673.71
<Rotation> 0 0 0
<TextureIndex> 6 7
<Pivot> 0 0 0
<Extent> 22.5847 17.7449 22.0022
../Model/Map/Mushroom/Mushroom_c.fbx
<Name> Mushroom
<Position> 681.973 516 5918.65
<Rotation> 0 0 0
<TextureIndex> 6 7
<Pivot> 0 0 0
<Extent> 27.2261 27.215 30.6688
../Model/Map/Mushroom/Mushroom_a.fbx
<Name> Mushroom
<Position> 1070.47 516 5775.9
<Rotation> 0 0 0
<TextureIndex> 6 7
<Pivot> 0 0 0
<Extent> 22.5847 17.7449 22.0022
../Model/Map/Mushroom/Mushroom_c.fbx
<Name> Mushroom
<Position> 1155.33 516 5507.37
<Rotation> 0 0 0
<TextureIndex> 6 7
<Pivot> 0 0 0
<Extent> 27.2261 27.215 30.6688
../Model/Map/Mushroom/Mushroom_a.fbx
<Name> Mushroom
<Position> 1447.55 516 5548.22
<Rotation> 0 0 0
<TextureIndex> 6 7
<Pivot> 0 0 0
<Extent> 22.5847 17.7449 22.0022
../Model/Map/Mushroom/Mushroom_c.fbx
<Name> Mushroom
<Position> 1345.97 516 6060.91
<Rotation> 0 0 0
<TextureIndex> 6 7
<Pivot> 0 0 0
<Extent> 27.2261 27.215 30.6688
../Model/Map/Mushroom/Mushroom_a.fbx
<Name> Mushroom
<Position> 1584.11 516 6255.98
<Rotation> 0 0 0
<TextureIndex> 6 7
<Pivot> 0 0 0
<Extent> 22.5847 17.7449 22.0022
../Model/Map/Mushroom/Mushroom_c.fbx
<Name> Mushroom
<Position> 1628.93 516 6490.76
<Rotation> 0 0 0
<TextureIndex> 6 7
<Pivot> 0 0 0
<Extent> 27.2261 27.215 30.6688
../Model/Map/Mushroom/Mushroom_a.fbx
<Name> Mushroom
<Position> 1301.31 516 6595.91
<Rotation> 0 0 0
<TextureIndex> 6 7
<Pivot> 0 0 0
<Extent> 22.5847 17.7449 22.0022
../Model/Map/Mushroom/Mushroom_c.fbx
<Name> Mushroom
<Position> 970.341 516 6514.86
<Rotation> 0 0 0
<TextureIndex> 6 7
<Pivot> 0 0 0
<Extent> 27.2261 27.215 30.6688
../Model/Map/Mushroom/Mushroom_a.fbx
<Name> Mushroom
<Position> 1147.26 516 7105.99
<Rotation> 0 0 0
<TextureIndex> 6 7
<Pivot> 0 0 0
<Extent> 22.5847 17.7449 22.0022
../Model/Map/Mushroom/Mushroom_c.fbx
<Name> Mushroom
<Position> 1262.21 516 7286.93
<Rotation> 0 0 0
<TextureIndex> 6 7
<Pivot> 0 0 0
<Extent> 27.2261 27.215 30.6688
../Model/Map/Mushroom/Mushroom_a.fbx
<Name> Mushroom
<Position> 1477.74 516 7472.33
<Rotation> 0 0 0
<TextureIndex> 6 7
<Pivot> 0 0 0
<Extent> 22.5847 17.7449 22.0022
../Model/Map/Mushroom/Mushroom_c.fbx
<Name> Mushroom
<Position> 1779.45 516 7365.53
<Rotation> 0 0 0
<TextureIndex> 6 7
<Pivot> 0 0 0
<Extent> 27.2261 27.215 30.6688
../Model/Map/Mushroom/Mushroom_a.fbx
<Name> Mushroom
<Position> 343.738 516 7119.84
<Rotation> 0 0 0
<TextureIndex> 6 7
<Pivot> 0 0 0
<Extent> 22.5847 17.7449 22.0022
../Model/Map/Mushroom/Mushroom_c.fbx
<Name> Mushroom
<Position> 169.301 516 7359.28
<Rotation> 0 0 0
<TextureIndex> 6 7
<Pivot> 0 0 0
<Extent> 27.2261 27.215 30.6688
../Model/Map/Mushroom/Mushroom_a.fbx
<Name> Mushroom
<Position> 435.88 516 7539.36
<Rotation> 0 0 0
<TextureIndex> 6 7
<Pivot> 0 0 0
<Extent> 22.5847 17.7449 22.0022
../Model/Map/Mushroom/Mushroom_c.fbx
<Name> Mushroom
<Position> 542.524 516 7695.07
<Rotation> 0 0 0
<TextureIndex> 6 7
<Pivot> 0 0 0
<Extent> 27.2261 27.215 30.6688
../Model/Map/Mushroom/Mushroom_a.fbx
<Name> Mushroom
<Position> 958.713 516 7809.16
<Rotation> 0 0 0
<TextureIndex> 6 7
<Pivot> 0 0 0
<Extent> 22.5847 17.7449 22.0022
../Model/Map/Mushroom/Mushroom_c.fbx
<Name> Mushroom
<Position> 795.613 516 8098.96
<Rotation> 0 0 0
<TextureIndex> 6 7
<Pivot> 0 0 0
<Extent> 27.2261 27.215 30.6688
../Model/Map/Mushroom/Mushroom_a.fbx
<Name> Mushroom
<Position> 701.359 516 8331.02
<Rotation> 0 0 0
<TextureIndex> 6 7
<Pivot> 0 0 0
<Extent> 22.5847 17.7449 22.0022
../Model/Map/Mushroom/Mushroom_c.fbx
<Name> Mushroom
<Position> 954.778 516 8129.11
<Rotation> 0 0 0
<TextureIndex> 6 7
<Pivot> 0 0 0
<Extent> 27.2261 27.215 30.6688
../Model/Map/Mushroom/Mushroom_a.fbx
<Name> Mushroom
<Position> 1164.36 516 8306.75
<Rotation> 0 0 0
<TextureIndex> 6 7
<Pivot> 0 0 0
<Extent> 22.5847 17.7449 22.0022
../Model/Map/Mushroom/Mushroom_c.fbx
<Name> Mushroom
<Position> 1382.12 516 8426.19
<Rotation> 0 0 0
<TextureIndex> 6 7
<Pivot> 0 0 0
<Extent> 27.2261 27.215 30.6688
../Model/Map/Mushroom/Mushroom_a.fbx
<Name> Mushroom
<Position> 1268.55 516 8825.77
<Rotation> 0 0 0
<TextureIndex> 6 7
<Pivot> 0 0 0
<Extent> 22.5847 17.7449 22.0022
../Model/Map/Mushroom/Mushroom_c.fbx
<Name> Mushroom
<Position> 1440.5 516 9162.54
<Rotation> 0 0 0
<TextureIndex> 6 7
<Pivot> 0 0 0
<Extent> 27.2261 27.215 30.6688
../Model/Map/Mushroom/Mushroom_a.fbx
<Name> Mushroom
<Position> 1695.19 516 8805.26
<Rotation> 0 0 0
<TextureIndex> 6 7
<Pivot> 0 0 0
<Extent> 22.5847 17.7449 22.0022
../Model/Map/Mushroom/Mushroom_c.fbx
<Name> Mushroom
<Position> 1888.62 516 9161.55
<Rotation> 0 0 0
<TextureIndex> 6 7
<Pivot> 0 0 0
<Extent> 27.2261 27.215 30.6688
../Model/Map/Mushroom/Mushroom_a.fbx
<Name> Mushroom
<Position> 2057.53 516 9228.02
<Rotation> 0 0 0
<TextureIndex> 6 7
<Pivot> 0 0 0
<Extent> 22.5847 17.7449 22.0022
../Model/Map/Mushroom/Mushroom_c.fbx
<Name> Mushroom
<Position> 2207.24 516 8934.53
<Rotation> 0 0 0
<TextureIndex> 6 7
<Pivot> 0 0 0
<Extent> 27.2261 27.215 30.6688
../Model/Map/Mushroom/Mushroom_a.fbx
<Name> Mushroom
<Position> 2356.11 516 9363.06
<Rotation> 0 0 0
<TextureIndex> 6 7
<Pivot> 0 0 0
<Extent> 22.5847 17.7449 22.0022
../Model/Map/Mushroom/Mushroom_c.fbx
<Name> Mushroom
<Position> 2455.89 516 8757.26
<Rotation> 0 0 0
<TextureIndex> 6 7
<Pivot> 0 0 0
<Extent> 27.2261 27.215 30.6688
../Model/Map/Mushroom/Mushroom_a.fbx
<Name> Mushroom
<Position> 2447.4 516 8417.84
<Rotation> 0 0 0
<TextureIndex> 6 7
<Pivot> 0 0 0
<Extent> 22.5847 17.7449 22.0022
../Model/Map/Mushroom/Mushroom_c.fbx
<Name> Mushroom
<Position> 2706.24 516 8300.09
<Rotation> 0 0 0
<TextureIndex> 6 7
<Pivot> 0 0 0
<Extent> 27.2261 27.215 30.6688
../Model/Map/Mushroom/Mushroom_a.fbx
<Name> Mushroom
<Position> 3037.66 516 8705.09
<Rotation> 0 0 0
<TextureIndex> 6 7
<Pivot> 0 0 0
<Extent> 22.5847 17.7449 22.0022
../Model/Map/Mushroom/Mushroom_c.fbx
<Name> Mushroom
<Position> 3423.99 516 8897.12
<Rotation> 0 0 0
<TextureIndex> 6 7
<Pivot> 0 0 0
<Extent> 27.2261 27.215 30.6688
../Model/Map/Mushroom/Mushroom_a.fbx
<Name> Mushroom
<Position> 3822.09 516 8470.33
<Rotation> 0 0 0
<TextureIndex> 6 7
<Pivot> 0 0 0
<Extent> 22.5847 17.7449 22.0022
../Model/Map/Mushroom/Mushroom_c.fbx
<Name> Mushroom
<Position> 4210.49 516 9432.7
<Rotation> 0 0 0
<TextureIndex> 6 7
<Pivot> 0 0 0
<Extent> 27.2261 27.215 30.6688
../Model/Map/Mushroom/Mushroom_a.fbx
<Name> Mushroom
<Position> 4541.17 516 9368.52
<Rotation> 0 0 0
<TextureIndex> 6 7
<Pivot> 0 0 0
<Extent> 22.5847 17.7449 22.0022
../Model/Map/Mushroom/Mushroom_c.fbx
<Name> Mushroom
<Position> 4837.12 516 9271.44
<Rotation> 0 0 0
<TextureIndex> 6 7
<Pivot> 0 0 0
<Extent> 27.2261 27.215 30.6688
../Model/Map/Mushroom/Mushroom_a.fbx
<Name> Mushroom
<Position> 3778.75 516 7334.6
<Rotation> 0 0 0
<TextureIndex> 6 7
<Pivot> 0 0 0
<Extent> 22.5847 17.7449 22.0022
../Model/Map/Mushroom/Mushroom_c.fbx
<Name> Mushroom
<Position> 3947.29 516 7136.48
<Rotation> 0 0 0
<TextureIndex> 6 7
<Pivot> 0 0 0
<Extent> 27.2261 27.215 30.6688
../Model/Map/Mushroom/Mushroom_a.fbx
<Name> Mushroom
<Position> 3278.23 516 7160.19
<Rotation> 0 0 0
<TextureIndex> 6 7
<Pivot> 0 0 0
<Extent> 22.5847 17.7449 22.0022
../Model/Map/Mushroom/Mushroom_c.fbx
<Name> Mushroom
<Position> 3278.23 516 7699.15
<Rotation> 0 0 0
<TextureIndex> 6 7
<Pivot> 0 0 0
<Extent> 27.2261 27.215 30.6688
../Model/Map/Mushroom/Mushroom_a.fbx
<Name> Mushroom
<Position> 422.062 516 9301.79
<Rotation> 0 0 0
<TextureIndex> 6 7
<Pivot> 0 0 0
<Extent> 22.5847 17.7449 22.0022
../Model/Map/Mushroom/Mushroom_c.fbx
<Name> Mushroom
<Position> 633.188 516 9424.01
<Rotation> 0 0 0
<TextureIndex> 6 7
<Pivot> 0 0 0
<Extent> 27.2261 27.215 30.6688
../Model/Map/Mushroom/Mushroom_a.fbx
<Name> Mushroom
<Position> 374.505 516 9073.82
<Rotation> 0 0 0
<TextureIndex> 6 7
<Pivot> 0 0 0
<Extent> 22.5847 17.7449 22.0022
../Model/Map/Mushroom/Mushroom_c.fbx
<Name> Mushroom
<Position> 917.044 516 8930.76
<Rotation> 0 0 0
<TextureIndex> 6 7
<Pivot> 0 0 0
<Extent> 27.2261 27.215 30.6688
../Model/Map/Mushroom/Mushroom_a.fbx
<Name> Mushroom
<Position> 516.003 516 8450.51
<Rotation> 0 0 0
<TextureIndex> 6 7
<Pivot> 0 0 0
<Extent> 22.5847 17.7449 22.0022
../Model/Map/Mushroom/Mushroom_c.fbx
<Name> Mushroom
<Position> 5230.61 516 7664.73
<Rotation> 0 0 0
<TextureIndex> 6 7
<Pivot> 0 0 0
<Extent> 27.2261 27.215 30.6688
../Model/Map/Mushroom/Mushroom_a.fbx
<Name> Mushroom
<Position> 4734.12 516 5159.75
<Rotation> 0 0 0
<TextureIndex> 6 7
<Pivot> 0 0 0
<Extent> 22.5847 17.7449 22.0022
../Model/Map/Mushroom/Mushroom_c.fbx
<Name> Mushroom
<Position> 5317.68 516 5308.95
<Rotation> 0 0 0
<TextureIndex> 6 7
<Pivot> 0 0 0
<Extent> 27.2261 27.215 30.6688
../Model/Map/Tent/Tent.fbx
<Name> Tent
<Position> 3058.36 510 6410.69
<Rotation> 0 -30 0
<TextureIndex> 6 7
<Pivot> 0 0 177.112
<Extent> 319.954 141.723 177.112
../Model/Map/Tent/Tent.fbx
<Name> Tent
<Position> 4258.35 510 2717.47
<Rotation> 0 -150 0
<TextureIndex> 6 7
<Pivot> 0 0 177.112
<Extent> 319.954 141.723 177.112
../Model/Map/Tent/Tent.fbx
<Name> Tent
<Position> 7400 510 4999.99
<Rotation> 0 -270 0
<TextureIndex> 6 7
<Pivot> 0 0 177.112
<Extent> 319.954 141.723 177.112
../Model/Map/Logs/Logs_a.fbx
<Name> Logs
<Position> 5300 510 7900
<Rotation> 0 0 0
<TextureIndex> 6 7
<Pivot> 0 0 0
<Extent> 90 51.9683 90
../Model/Map/Logs/Logs_a.fbx
<Name> Logs
<Position> 5500 510 7900
<Rotation> 0 0 0
<TextureIndex> 6 7
<Pivot> 0 0 0
<Extent> 90 51.9683 90
../Model/Map/Barrel/Barrel.fbx
<Name> Barrel
<Position> 4500 510 8000
<Rotation> 0 0 0
<TextureIndex> 6 7
<Pivot> 0 0 0
<Extent> 39.9457 38.6617 37.4321
../Model/Map/Barrel/Barrel.fbx
<Name> Barrel
<Position> 4420 510 8000
<Rotation> 0 0 0
<TextureIndex> 6 7
<Pivot> 0 0 0
<Extent> 39.9457 38.6617 37.4321
../Model/Map/Barrel/Barrel.fbx
<Name> Barrel
<Position> 4340 510 8000
<Rotation> 0 0 0
<TextureIndex> 6 7
<Pivot> 0 0 0
<Extent> 39.9457 38.6617 37.4321
../Model/Map/Barrel/Barrel.fbx
<Name> Barrel
<Position> 4500 510 8080
<Rotation> 0 0 0
<TextureIndex> 6 7
<Pivot> 0 0 0
<Extent> 39.9457 38.6617 37.4321
../Model/Map/Barrel/Barrel.fbx
<Name> Barrel
<Position> 4420 510 8080
<Rotation> 0 0 0
<TextureIndex> 6 7
<Pivot> 0 0 0
<Extent> 39.9457 38.6617 37.4321
../Model/Map/Barrel/Barrel.fbx
<Name> Barrel
<Position> 4340 510 8080
<Rotation> 0 0 0
<TextureIndex> 6 7
<Pivot> 0 0 0
<Extent> 39.9457 38.6617 37.4321
../Model/Map/Cart/Cart_a.fbx
<Name> Cart
<Position> 5681.58 516 2271.06
<Rotation> 0 0 0
<TextureIndex> 6 7
<Pivot> 0 0 0
<Extent> 103.37 42.4106 70
../Model/Map/Cart/Cart_b.fbx
<Name> Cart
<Position> 7230.95 516 2958.34
<Rotation> 0 0 0
<TextureIndex> 6 7
<Pivot> 0 0 0
<Extent> 116.315 44.8655 70
../Model/Map/Cart/Cart_a.fbx
<Name> Cart
<Position> 7617.91 516 5739.03
<Rotation> 0 0 0
<TextureIndex> 6 7
<Pivot> 0 0 0
<Extent> 103.37 42.4106 70
../Model/Map/Cart/Cart_b.fbx
<Name> Cart
<Position> 5374.7 516 7515
<Rotation> 0 0 0
<TextureIndex> 6 7
<Pivot> 0 0 0
<Extent> 116.315 44.8655 70
../Model/Map/Cart/Cart_a.fbx
<Name> Cart
<Position> 4334.9 516 7704.38
<Rotation> 0 0 0
<TextureIndex> 6 7
<Pivot> 0 0 0
<Extent> 103.37 42.4106 70
../Model/Map/Cart/Cart_b.fbx
<Name> Cart
<Position> 2447.63 516 6596.62
<Rotation> 0 0 0
<TextureIndex> 6 7
<Pivot> 0 0 0
<Extent> 116.315 44.8655 70
../Model/Map/Cart/Cart_a.fbx
<Name> Cart
<Position> 1584.26 516 4258.77
<Rotation> 0 0 0
<TextureIndex> 6 7
<Pivot> 0 0 0
<Extent> 103.37 42.4106 70
../Model/Map/Rock/Rock_a.fbx
<Name> SmallRock
<Position> 194.531 516 454.159
<Rotation> 0 0 0
<TextureIndex> 6 7
<Pivot> 0 0 0
<Extent> 41.3758 15.5056 33.0631
../Model/Map/Rock/Rock_f.fbx
<Name> BigRock
<Position> 613.082 516 777.24
<Rotation> 0 0 0
<TextureIndex> 6 7
<Pivot> 0 0 0
<Extent> 101.231 73.1311 98.3936
../Model/Map/Rock/Rock_a.fbx
<Name> SmallRock
<Position> 1010.02 516 427.239
<Rotation> 0 0 0
<TextureIndex> 6 7
<Pivot> 0 0 0
<Extent> 41.3758 15.5056 33.0631
../Model/Map/Rock/Rock_f.fbx
<Name> BigRock
<Position> 1524.95 516 713.667
<Rotation> 0 0 0
<TextureIndex> 6 7
<Pivot> 0 0 0
<Extent> 101.231 73.1311 98.3936
../Model/Map/Rock/Rock_a.fbx
<Name> SmallRock
<Position> 1772.31 516 441.497
<Rotation> 0 0 0
<TextureIndex> 6 7
<Pivot> 0 0 0
<Extent> 41.3758 15.5056 33.0631
../Model/Map/Rock/Rock_f.fbx
<Name> BigRock
<Position> 1825.29 516 1035.62
<Rotation> 0 0 0
<TextureIndex> 6 7
<Pivot> 0 0 0
<Extent> 101.231 73.1311 98.3936
../Model/Map/Rock/Rock_a.fbx
<Name> SmallRock
<Position> 1589.33 516 1663.66
<Rotation> 0 0 0
<TextureIndex> 6 7
<Pivot> 0 0 0
<Extent> 41.3758 15.5056 33.0631
../Model/Map/Rock/Rock_f.fbx
<Name> BigRock
<Position> 517.907 516 2043.5
<Rotation> 0 0 0
<TextureIndex> 6 7
<Pivot> 0 0 0
<Extent> 101.231 73.1311 98.3936
../Model/Map/Rock/Rock_a.fbx
<Name> SmallRock
<Position> 1512.02 516 2815.34
<Rotation> 0 0 0
<TextureIndex> 6 7
<Pivot> 0 0 0
<Extent> 41.3758 15.5056 33.0631
../Model/Map/Rock/Rock_f.fbx
<Name> BigRock
<Position> 450.956 516 3760.75
<Rotation> 0 0 0
<TextureIndex> 6 7
<Pivot> 0 0 0
<Extent> 101.231 73.1311 98.3936
../Model/Map/Rock/Rock_a.fbx
<Name> SmallRock
<Position> 1726.6 516 4471.11
<Rotation> 0 0 0
<TextureIndex> 6 7
<Pivot> 0 0 0
<Extent> 41.3758 15.5056 33.0631
../Model/Map/Rock/Rock_f.fbx
<Name> BigRock
<Position> 1726.6 516 5399.41
<Rotation> 0 0 0
<TextureIndex> 6 7
<Pivot> 0 0 0
<Extent> 101.231 73.1311 98.3936
../Model/Map/Rock/Rock_a.fbx
<Name> SmallRock
<Position> 203.661 516 5994.58
<Rotation> 0 0 0
<TextureIndex> 6 7
<Pivot> 0 0 0
<Extent> 41.3758 15.5056 33.0631
../Model/Map/Rock/Rock_f.fbx
<Name> BigRock
<Position> 765.838 516 7266.77
<Rotation> 0 0 0
<TextureIndex> 6 7
<Pivot> 0 0 0
<Extent> 101.231 73.1311 98.3936
../Model/Map/Rock/Rock_a.fbx
<Name> SmallRock
<Position> 317.319 516 8315.7
<Rotation> 0 0 0
<TextureIndex> 6 7
<Pivot> 0 0 0
<Extent> 41.3758 15.5056 33.0631
../Model/Map/Rock/Rock_f.fbx
<Name> BigRock
<Position> 1092.21 516 9092.35
<Rotation> 0 0 0
<TextureIndex> 6 7
<Pivot> 0 0 0
<Extent> 101.231 73.1311 98.3936
../Model/Map/Rock/Rock_a.fbx
<Name> SmallRock
<Position> 1755.78 516 8482.57
<Rotation> 0 0 0
<TextureIndex> 6 7
<Pivot> 0 0 0
<Extent> 41.3758 15.5056 33.0631
../Model/Map/Rock/Rock_f.fbx
<Name> BigRock
<Position> 2769.55 516 9293.93
<Rotation> 0 0 0
<TextureIndex> 6 7
<Pivot> 0 0 0
<Extent> 101.231 73.1311 98.3936
../Model/Map/Rock/Rock_a.fbx
<Name> SmallRock
<Position> 3245.23 516 8825.44
<Rotation> 0 0 0
<TextureIndex> 6 7
<Pivot> 0 0 0
<Extent> 41.3758 15.5056 33.0631
../Model/Map/Rock/Rock_f.fbx
<Name> BigRock
<Position> 2663.74 516 7939.08
<Rotation> 0 0 0
<TextureIndex> 6 7
<Pivot> 0 0 0
<Extent> 101.231 73.1311 98.3936
../Model/Map/Rock/Rock_a.fbx
<Name> SmallRock
<Position> 1766.45 516 6808.17
<Rotation> 0 0 0
<TextureIndex> 6 7
<Pivot> 0 0 0
<Extent> 41.3758 15.5056 33.0631
../Model/Map/Rock/Rock_f.fbx
<Name> BigRock
<Position> 2364.59 516 6210.02
<Rotation> 0 0 0
<TextureIndex> 6 7
<Pivot> 0 0 0
<Extent> 101.231 73.1311 98.3936
../Model/Map/Rock/Rock_a.fbx
<Name> SmallRock
<Position> 3909.09 516 7369.14
<Rotation> 0 0 0
<TextureIndex> 6 7
<Pivot> 0 0 0
<Extent> 41.3758 15.5056 33.0631
../Model/Map/Rock/Rock_f.fbx
<Name> BigRock
<Position> 3837.48 516 9224.34
<Rotation> 0 0 0
<TextureIndex> 6 7
<Pivot> 0 0 0
<Extent> 101.231 73.1311 98.3936
../Model/Map/Rock/Rock_a.fbx
<Name> SmallRock
<Position> 5492.38 516 7410.48
<Rotation> 0 0 0
<TextureIndex> 6 7
<Pivot> 0 0 0
<Extent> 41.3758 15.5056 33.0631
../Model/Map/Rock/Rock_f.fbx
<Name> BigRock
<Position> 5368.09 516 9489.12
<Rotation> 0 0 0
<TextureIndex> 6 7
<Pivot> 0 0 0
<Extent> 101.231 73.1311 98.3936
../Model/Map/Rock/Rock_a.fbx
<Name> SmallRock
<Position> 7769.35 516 9478.27
<Rotation> 0 0 0
<TextureIndex> 6 7
<Pivot> 0 0 0
<Extent> 41.3758 15.5056 33.0631
../Model/Map/Rock/Rock_f.fbx
<Name> BigRock
<Position> 7496.32 516 8725.25
<Rotation> 0 0 0
<TextureIndex> 6 7
<Pivot> 0 0 0
<Extent> 101.231 73.1311 98.3936
../Model/Map/Rock/Rock_a.fbx
<Name> SmallRock
<Position> 9446.41 516 9486.43
<Rotation> 0 0 0
<TextureIndex> 6 7
<Pivot> 0 0 0
<Extent> 41.3758 15.5056 33.0631
../Model/Map/Rock/Rock_f.fbx
<Name> BigRock
<Position> 9469.46 516 8173.1
<Rotation> 0 0 0
<TextureIndex> 6 7
<Pivot> 0 0 0
<Extent> 101.231 73.1311 98.3936
../Model/Map/Rock/Rock_a.fbx
<Name> SmallRock
<Position> 8949.67 516 7448.53
<Rotation> 0 0 0
<TextureIndex> 6 7
<Pivot> 0 0 0
<Extent> 41.3758 15.5056 33.0631
../Model/Map/Rock/Rock_f.fbx
<Name> BigRock
<Position> 9691.69 516 6797.18
<Rotation> 0 0 0
<TextureIndex> 6 7
<Pivot> 0 0 0
<Extent> 101.231 73.1311 98.3936
../Model/Map/Rock/Rock_a.fbx
<Name> SmallRock
<Position> 8699.05 516 6304.91
<Rotation> 0 0 0
<TextureIndex> 6 7
<Pivot> 0 0 0
<Extent> 41.3758 15.5056 33.0631
../Model/Map/Rock/Rock_f.fbx
<Name> BigRock
<Position> 9463.99 516 5521.9
<Rotation> 0 0 0
<TextureIndex> 6 7
<Pivot> 0 0 0
<Extent> 101.231 73.1311 98.3936
../Model/Map/Rock/Rock_a.fbx
<Name> SmallRock
<Position> 9550.24 516 4683.69
<Rotation> 0 0 0
<TextureIndex> 6 7
<Pivot> 0 0 0
<Extent> 41.3758 15.5056 33.0631
../Model/Map/Rock/Rock_f.fbx
<Name> BigRock
<Position> 8655.81 516 5012.08
<Rotation> 0 0 0
<TextureIndex> 6 7
<Pivot> 0 0 0
<Extent> 101.231 73.1311 98.3936
../Model/Map/Rock/Rock_a.fbx
<Name> SmallRock
<Position> 8262.15 516 4268.3
<Rotation> 0 0 0
<TextureIndex> 6 7
<Pivot> 0 0 0
<Extent> 41.3758 15.5056 33.0631
../Model/Map/Rock/Rock_f.fbx
<Name> BigRock
<Position> 9064.84 516 3662.64
<Rotation> 0 0 0
<TextureIndex> 6 7
<Pivot> 0 0 0
<Extent> 101.231 73.1311 98.3936
../Model/Map/Rock/Rock_a.fbx
<Name> SmallRock
<Position> 9735.39 516 3008.62
<Rotation> 0 0 0
<TextureIndex> 6 7
<Pivot> 0 0 0
<Extent> 41.3758 15.5056 33.0631
../Model/Map/Rock/Rock_f.fbx
<Name> BigRock
<Position> 8372.45 516 2721.34
<Rotation> 0 0 0
<TextureIndex> 6 7
<Pivot> 0 0 0
<Extent> 101.231 73.1311 98.3936
../Model/Map/Rock/Rock_a.fbx
<Name> SmallRock
<Position> 7996.14 516 2062.17
<Rotation> 0 0 0
<TextureIndex> 6 7
<Pivot> 0 0 0
<Extent> 41.3758 15.5056 33.0631
../Model/Map/Rock/Rock_f.fbx
<Name> BigRock
<Position> 6217.59 516 3501.85
<Rotation> 0 0 0
<TextureIndex> 6 7
<Pivot> 0 0 0
<Extent> 101.231 73.1311 98.3936
../Model/Map/Rock/Rock_a.fbx
<Name> SmallRock
<Position> 5178.36 516 4257.08
<Rotation> 0 0 0
<TextureIndex> 6 7
<Pivot> 0 0 0
<Extent> 41.3758 15.5056 33.0631
../Model/Map/Rock/Rock_f.fbx
<Name> BigRock
<Position> 4659.43 516 4811.04
<Rotation> 0 0 0
<TextureIndex> 6 7
<Pivot> 0 0 0
<Extent> 101.231 73.1311 98.3936
../Model/Map/Rock/Rock_a.fbx
<Name> SmallRock
<Position> 6777.97 516 5181.45
<Rotation> 0 0 0
<TextureIndex> 6 7
<Pivot> 0 0 0
<Extent> 41.3758 15.5056 33.0631
../Model/Map/Rock/Rock_f.fbx
<Name> BigRock
<Position> 4266.22 516 3423.43
<Rotation> 0 0 0
<TextureIndex> 6 7
<Pivot> 0 0 0
<Extent> 101.231 73.1311 98.3936
../Model/Map/Rock/Rock_a.fbx
<Name> SmallRock
<Position> 5235.12 516 2348.74
<Rotation> 0 0 0
<TextureIndex> 6 7
<Pivot> 0 0 0
<Extent> 41.3758 15.5056 33.0631
../Model/Map/Rock/Rock_f.fbx
<Name> BigRock
<Position> 6505.29 516 2649.46
<Rotation> 0 0 0
<TextureIndex> 6 7
<Pivot> 0 0 0
<Extent> 101.231 73.1311 98.3936
../Model/Map/Rock/Rock_a.fbx
<Name> SmallRock
<Position> 6563.61 516 1485.67
<Rotation> 0 0 0
<TextureIndex> 6 7
<Pivot> 0 0 0
<Extent> 41.3758 15.5056 33.0631
../Model/Map/Rock/Rock_f.fbx
<Name> BigRock
<Position> 6023.85 516 1137.95
<Rotation> 0 0 0
<TextureIndex> 6 7
<Pivot> 0 0 0
<Extent> 101.231 73.1311 98.3936
../Model/Map/Rock/Rock_a.fbx
<Name> SmallRock
<Position> 7546.25 516 932.404
<Rotation> 0 0 0
<TextureIndex> 6 7
<Pivot> 0 0 0
<Extent> 41.3758 15.5056 33.0631
../Model/Map/Rock/Rock_f.fbx
<Name> BigRock
<Position> 8032.47 516 1426.89
<Rotation> 0 0 0
<TextureIndex> 6 7
<Pivot> 0 0 0
<Extent> 101.231 73.1311 98.3936
../Model/Map/Rock/Rock_a.fbx
<Name> SmallRock
<Position> 8511.99 516 1034.02
<Rotation> 0 0 0
<TextureIndex> 6 7
<Pivot> 0 0 0
<Extent> 41.3758 15.5056 33.0631
../Model/Map/Rock/Rock_f.fbx
<Name> BigRock
<Position> 9144.3 516 1763.58
<Rotation> 0 0 0
<TextureIndex> 6 7
<Pivot> 0 0 0
<Extent> 101.231 73.1311 98.3936
../Model/Map/Rock/Rock_a.fbx
<Name> SmallRock
<Position> 9582.67 516 1543.89
<Rotation> 0 0 0
<TextureIndex> 6 7
<Pivot> 0 0 0
<Extent> 41.3758 15.5056 33.0631
../Model/Map/Rock/Rock_f.fbx
<Name> BigRock
<Position> 9090.51 516 920.054
<Rotation> 0 0 0
<TextureIndex> 6 7
<Pivot> 0 0 0
<Extent> 101.231 73.1311 98.3936
../Model/Map/Rock/Rock_a.fbx
<Name> SmallRock
<Position> 9484.11 516 444.65
<Rotation> 0 0 0
<TextureIndex> 6 7
<Pivot> 0 0 0
<Extent> 41.3758 15.5056 33.0631
../Model/Map/Rock/Rock_f.fbx
<Name> BigRock
<Position> 5178.59 516 2959.35
<Rotation> 0 0 0
<TextureIndex> 6 7
<Pivot> 0 0 0
<Extent> 101.231 73.1311 98.3936
../Model/Map/Rock/Rock_a.fbx
<Name> SmallRock
<Position> 6096.09 516 4708.01
<Rotation> 0 0 0
<TextureIndex> 6 7
<Pivot> 0 0 0
<Extent> 41.3758 15.5056 33.0631
../Model/Map/Rock/Rock_f.fbx
<Name> BigRock
<Position> 4072.37 516 979.39
<Rotation> 0 0 0
<TextureIndex> 6 7
<Pivot> 0 0 0
<Extent> 101.231 73.1311 98.3936
../Model/Map/Tree/Pine_tree.fbx
<Name> Tree1
<Position> 281.359 516 200.412
<Rotation> 0 0 0
<TextureIndex> 8 9
<Pivot> 0 0 0
<Extent> 31.2523 54.4631 35.9197
../Model/Map/Tree/pine2b.fbx
<Name> Tree2
<Position> 550.465 516 472.77
<Rotation> 0 0 0
<TextureIndex> 10 11
<Pivot> 0 0 0
<Extent> 69.1326 64.6342 69.5584
../Model/Map/Tree/Pine_tree.fbx
<Name> Tree1
<Position> 877.994 516 150.282
<Rotation> 0 0 0
<TextureIndex> 8 9
<Pivot> 0 0 0
<Extent> 31.2523 54.4631 35.9197
../Model/Map/Tree/pine2b.fbx
<Name> Tree2
<Position> 1052.59 516 621.008
<Rotation> 0 0 0
<TextureIndex> 10 11
<Pivot> 0 0 0
<Extent> 69.1326 64.6342 69.5584
../Model/Map/Tree/Pine_tree.fbx
<Name> Tree1
<Position> 1385.13 516 229.229
<Rotation> 0 0 0
<TextureIndex> 8 9
<Pivot> 0 0 0
<Extent> 31.2523 54.4631 35.9197
../Model/Map/Tree/pine2b.fbx
<Name> Tree2
<Position> 1826.71 516 545.782
<Rotation> 0 0 0
<TextureIndex> 10 11
<Pivot> 0 0 0
<Extent> 69.1326 64.6342 69.5584
../Model/Map/Tree/Pine_tree.fbx
<Name> Tree1
<Position> 277.558 516 1038.35
<Rotation> 0 0 0
<TextureIndex> 8 9
<Pivot> 0 0 0
<Extent> 31.2523 54.4631 35.9197
../Model/Map/Tree/pine2b.fbx
<Name> Tree2
<Position> 729.108 516 1300.72
<Rotation> 0 0 0
<TextureIndex> 10 11
<Pivot> 0 0 0
<Extent> 69.1326 64.6342 69.5584
../Model/Map/Tree/Pine_tree.fbx
<Name> Tree1
<Position> 1060.57 516 964.145
<Rotation> 0 0 0
<TextureIndex> 8 9
<Pivot> 0 0 0
<Extent> 31.2523 54.4631 35.9197
../Model/Map/Tree/pine2b.fbx
<Name> Tree2
<Position> 1348.28 516 1239.08
<Rotation> 0 0 0
<TextureIndex> 10 11
<Pivot> 0 0 0
<Extent> 69.1326 64.6342 69.5584
../Model/Map/Tree/Pine_tree.fbx
<Name> Tree1
<Position> 2013.15 515.737 1435.95
<Rotation> 0 0 0
<TextureIndex> 8 9
<Pivot> 0 0 0
<Extent> 31.2523 54.4631 35.9197
../Model/Map/Tree/pine2b.fbx
<Name> Tree2
<Position> 1845.59 516 2066.44
<Rotation> 0 0 0
<TextureIndex> 10 11
<Pivot> 0 0 0
<Extent> 69.1326 64.6342 69.5584
../Model/Map/Tree/Pine_tree.fbx
<Name> Tree1
<Position> 1301.01 516 1972.41
<Rotation> 0 0 0
<TextureIndex> 8 9
<Pivot> 0 0 0
<Extent> 31.2523 54.4631 35.9197
../Model/Map/Tree/pine2b.fbx
<Name> Tree2
<Position> 1042.07 516 2128.31
<Rotation> 0 0 0
<TextureIndex> 10 11
<Pivot> 0 0 0
<Extent> 69.1326 64.6342 69.5584
../Model/Map/Tree/Pine_tree.fbx
<Name> Tree1
<Position> 514.44 516 1781.09
<Rotation> 0 0 0
<TextureIndex> 8 9
<Pivot> 0 0 0
<Extent> 31.2523 54.4631 35.9197
../Model/Map/Tree/pine2b.fbx
<Name> Tree2
<Position> 317.123 516 2397.6
<Rotation> 0 0 0
<TextureIndex> 10 11
<Pivot> 0 0 0
<Extent> 69.1326 64.6342 69.5584
../Model/Map/Tree/Pine_tree.fbx
<Name> Tree1
<Position> 686.769 516 2742.99
<Rotation> 0 0 0
<TextureIndex> 8 9
<Pivot> 0 0 0
<Extent> 31.2523 54.4631 35.9197
../Model/Map/Tree/pine2b.fbx
<Name> Tree2
<Position> 942.512 516 2543.89
<Rotation> 0 0 0
<TextureIndex> 10 11
<Pivot> 0 0 0
<Extent> 69.1326 64.6342 69.5584
../Model/Map/Tree/Pine_tree.fbx
<Name> Tree1
<Position> 1385.21 516 2323.86
<Rotation> 0 0 0
<TextureIndex> 8 9
<Pivot> 0 0 0
<Extent> 31.2523 54.4631 35.9197
../Model/Map/Tree/pine2b.fbx
<Name> Tree2
<Position> 1704.23 516 2548.69
<Rotation> 0 0 0
<TextureIndex> 10 11
<Pivot> 0 0 0
<Extent> 69.1326 64.6342 69.5584
../Model/Map/Tree/Pine_tree.fbx
<Name> Tree1
<Position> 2040.12 515.412 2310.75
<Rotation> 0 0 0
<TextureIndex> 8 9
<Pivot> 0 0 0
<Extent> 31.2523 54.4631 35.9197
../Model/Map/Tree/pine2b.fbx
<Name> Tree2
<Position> 1938.11 516 2777.25
<Rotation> 0 0 0
<TextureIndex> 10 11
<Pivot> 0 0 0
<Extent> 69.1326 64.6342 69.5584
../Model/Map/Tree/Pine_tree.fbx
<Name> Tree1
<Position> 2006.35 515.873 3220.27
<Rotation> 0 0 0
<TextureIndex> 8 9
<Pivot> 0 0 0
<Extent> 31.2523 54.4631 35.9197
../Model/Map/Tree/pine2b.fbx
<Name> Tree2
<Position> 1567.02 516 3220.27
<Rotation> 0 0 0
<TextureIndex> 10 11
<Pivot> 0 0 0
<Extent> 69.1326 64.6342 69.5584
../Model/Map/Tree/Pine_tree.fbx
<Name> Tree1
<Position> 1291.58 516 2955.02
<Rotation> 0 0 0
<TextureIndex> 8 9
<Pivot> 0 0 0
<Extent> 31.2523 54.4631 35.9197
../Model/Map/Tree/pine2b.fbx
<Name> Tree2
<Position> 984.185 516 3347.82
<Rotation> 0 0 0
<TextureIndex> 10 11
<Pivot> 0 0 0
<Extent> 69.1326 64.6342 69.5584
../Model/Map/Tree/Pine_tree.fbx
<Name> Tree1
<Position> 663.103 516 2940.42
<Rotation> 0 0 0
<TextureIndex> 8 9
<Pivot> 0 0 0
<Extent> 31.2523 54.4631 35.9197
../Model/Map/Tree/pine2b.fbx
<Name> Tree2
<Position> 222.957 516 3320.43
<Rotation> 0 0 0
<TextureIndex> 10 11
<Pivot> 0 0 0
<Extent> 69.1326 64.6342 69.5584
../Model/Map/Tree/Pine_tree.fbx
<Name> Tree1
<Position> 561.596 516 3493.13
<Rotation> 0 0 0
<TextureIndex> 8 9
<Pivot> 0 0 0
<Extent> 31.2523 54.4631 35.9197
../Model/Map/Tree/pine2b.fbx
<Name> Tree2
<Position> 949.26 516 3795.55
<Rotation> 0 0 0
<TextureIndex> 10 11
<Pivot> 0 0 0
<Extent> 69.1326 64.6342 69.5584
../Model/Map/Tree/Pine_tree.fbx
<Name> Tree1
<Position> 1635.16 516 3778.94
<Rotation> 0 0 0
<TextureIndex> 8 9
<Pivot> 0 0 0
<Extent> 31.2523 54.4631 35.9197
../Model/Map/Tree/pine2b.fbx
<Name> Tree2
<Position> 307.626 516 4231.15
<Rotation> 0 0 0
<TextureIndex> 10 11
<Pivot> 0 0 0
<Extent> 69.1326 64.6342 69.5584
../Model/Map/Tree/Pine_tree.fbx
<Name> Tree1
<Position> 699.676 516 4520.8
<Rotation> 0 0 0
<TextureIndex> 8 9
<Pivot> 0 0 0
<Extent> 31.2523 54.4631 35.9197
../Model/Map/Tree/pine2b.fbx
<Name> Tree2
<Position> 263.097 516 4914.83
<Rotation> 0 0 0
<TextureIndex> 10 11
<Pivot> 0 0 0
<Extent> 69.1326 64.6342 69.5584
../Model/Map/Tree/Pine_tree.fbx
<Name> Tree1
<Position> 741.614 516 5277.75
<Rotation> 0 0 0
<TextureIndex> 8 9
<Pivot> 0 0 0
<Extent> 31.2523 54.4631 35.9197
../Model/Map/Tree/pine2b.fbx
<Name> Tree2
<Position> 286.383 516 5630.32
<Rotation> 0 0 0
<TextureIndex> 10 11
<Pivot> 0 0 0
<Extent> 69.1326 64.6342 69.5584
../Model/Map/Tree/Pine_tree.fbx
<Name> Tree1
<Position> 698.337 516 5759.77
<Rotation> 0 0 0
<TextureIndex> 8 9
<Pivot> 0 0 0
<Extent> 31.2523 54.4631 35.9197
../Model/Map/Tree/pine2b.fbx
<Name> Tree2
<Position> 698.337 516 6062.38
<Rotation> 0 0 0
<TextureIndex> 10 11
<Pivot> 0 0 0
<Extent> 69.1326 64.6342 69.5584
../Model/Map/Tree/Pine_tree.fbx
<Name> Tree1
<Position> 236.377 516 6208.01
<Rotation> 0 0 0
<TextureIndex> 8 9
<Pivot> 0 0 0
<Extent> 31.2523 54.4631 35.9197
../Model/Map/Tree/pine2b.fbx
<Name> Tree2
<Position> 236.377 516 6484.28
<Rotation> 0 0 0
<TextureIndex> 10 11
<Pivot> 0 0 0
<Extent> 69.1326 64.6342 69.5584
../Model/Map/Tree/Pine_tree.fbx
<Name> Tree1
<Position> 577.02 516 6484.28
<Rotation> 0 0 0
<TextureIndex> 8 9
<Pivot> 0 0 0
<Extent> 31.2523 54.4631 35.9197
../Model/Map/Tree/pine2b.fbx
<Name> Tree2
<Position> 577.02 516 6764.71
<Rotation> 0 0 0
<TextureIndex> 10 11
<Pivot> 0 0 0
<Extent> 69.1326 64.6342 69.5584
../Model/Map/Tree/Pine_tree.fbx
<Name> Tree1
<Position> 305.523 516 6815.02
<Rotation> 0 0 0
<TextureIndex> 8 9
<Pivot> 0 0 0
<Extent> 31.2523 54.4631 35.9197
../Model/Map/Tree/pine2b.fbx
<Name> Tree2
<Position> 407.78 516 7327.97
<Rotation> 0 0 0
<TextureIndex> 10 11
<Pivot> 0 0 0
<Extent> 69.1326 64.6342 69.5584
../Model/Map/Tree/Pine_tree.fbx
<Name> Tree1
<Position> 249.83 516 7621.3
<Rotation> 0 0 0
<TextureIndex> 8 9
<Pivot> 0 0 0
<Extent> 31.2523 54.4631 35.9197
../Model/Map/Tree/pine2b.fbx
<Name> Tree2
<Position> 611.529 516 7825.06
<Rotation> 0 0 0
<TextureIndex> 10 11
<Pivot> 0 0 0
<Extent> 69.1326 64.6342 69.5584
../Model/Map/Tree/Pine_tree.fbx
<Name> Tree1
<Position> 895.907 516 7514.2
<Rotation> 0 0 0
<TextureIndex> 8 9
<Pivot> 0 0 0
<Extent> 31.2523 54.4631 35.9197
../Model/Map/Tree/pine2b.fbx
<Name> Tree2
<Position> 1100.43 516 7189.05
<Rotation> 0 0 0
<TextureIndex> 10 11
<Pivot> 0 0 0
<Extent> 69.1326 64.6342 69.5584
../Model/Map/Tree/Pine_tree.fbx
<Name> Tree1
<Position> 1350.75 516 6690.53
<Rotation> 0 0 0
<TextureIndex> 8 9
<Pivot> 0 0 0
<Extent> 31.2523 54.4631 35.9197
../Model/Map/Tree/pine2b.fbx
<Name> Tree2
<Position> 1182 516 6324.19
<Rotation> 0 0 0
<TextureIndex> 10 11
<Pivot> 0 0 0
<Extent> 69.1326 64.6342 69.5584
../Model/Map/Tree/Pine_tree.fbx
<Name> Tree1
<Position> 1515.76 516 6051.47
<Rotation> 0 0 0
<TextureIndex> 8 9
<Pivot> 0 0 0
<Extent> 31.2523 54.4631 35.9197
../Model/Map/Tree/pine2b.fbx
<Name> Tree2
<Position> 1761.12 516 6298.43
<Rotation> 0 0 0
<TextureIndex> 10 11
<Pivot> 0 0 0
<Extent> 69.1326 64.6342 69.5584
../Model/Map/Tree/Pine_tree.fbx
<Name> Tree1
<Position> 1501.95 516 6515.57
<Rotation> 0 0 0
<TextureIndex> 8 9
<Pivot> 0 0 0
<Extent> 31.2523 54.4631 35.9197
../Model/Map/Tree/pine2b.fbx
<Name> Tree2
<Position> 1566.91 516 6933.32
<Rotation> 0 0 0
<TextureIndex> 10 11
<Pivot> 0 0 0
<Extent> 69.1326 64.6342 69.5584
../Model/Map/Tree/Pine_tree.fbx
<Name> Tree1
<Position> 1922.87 516 7331.63
<Rotation> 0 0 0
<TextureIndex> 8 9
<Pivot> 0 0 0
<Extent> 31.2523 54.4631 35.9197
../Model/Map/Tree/pine2b.fbx
<Name> Tree2
<Position> 1603.34 516 7497.01
<Rotation> 0 0 0
<TextureIndex> 10 11
<Pivot> 0 0 0
<Extent> 69.1326 64.6342 69.5584
../Model/Map/Tree/Pine_tree.fbx
<Name> Tree1
<Position> 1318.37 516 7639.72
<Rotation> 0 0 0
<TextureIndex> 8 9
<Pivot> 0 0 0
<Extent> 31.2523 54.4631 35.9197
../Model/Map/Tree/pine2b.fbx
<Name> Tree2
<Position> 954.324 516 7537.9
<Rotation> 0 0 0
<TextureIndex> 10 11
<Pivot> 0 0 0
<Extent> 69.1326 64.6342 69.5584
../Model/Map/Tree/Pine_tree.fbx
<Name> Tree1
<Position> 720.898 516 7735.42
<Rotation> 0 0 0
<TextureIndex> 8 9
<Pivot> 0 0 0
<Extent> 31.2523 54.4631 35.9197
../Model/Map/Tree/pine2b.fbx
<Name> Tree2
<Position> 434.772 516 7943.97
<Rotation> 0 0 0
<TextureIndex> 10 11
<Pivot> 0 0 0
<Extent> 69.1326 64.6342 69.5584
../Model/Map/Tree/Pine_tree.fbx
<Name> Tree1
<Position> 504.691 516 8145.07
<Rotation> 0 0 0
<TextureIndex> 8 9
<Pivot> 0 0 0
<Extent> 31.2523 54.4631 35.9197
../Model/Map/Tree/pine2b.fbx
<Name> Tree2
<Position> 880.518 516 8348.06
<Rotation> 0 0 0
<TextureIndex> 10 11
<Pivot> 0 0 0
<Extent> 69.1326 64.6342 69.5584
../Model/Map/Tree/Pine_tree.fbx
<Name> Tree1
<Position> 1212.74 516 8088.02
<Rotation> 0 0 0
<TextureIndex> 8 9
<Pivot> 0 0 0
<Extent> 31.2523 54.4631 35.9197
../Model/Map/Tree/pine2b.fbx
<Name> Tree2
<Position> 1571.12 516 8409.5
<Rotation> 0 0 0
<TextureIndex> 10 11
<Pivot> 0 0 0
<Extent> 69.1326 64.6342 69.5584
../Model/Map/Tree/Pine_tree.fbx
<Name> Tree1
<Position> 1820.37 516 8127.12
<Rotation> 0 0 0
<TextureIndex> 8 9
<Pivot> 0 0 0
<Extent> 31.2523 54.4631 35.9197
../Model/Map/Tree/pine2b.fbx
<Name> Tree2
<Position> 2157.92 516 7784.68
<Rotation> 0 0 0
<TextureIndex> 10 11
<Pivot> 0 0 0
<Extent> 69.1326 64.6342 69.5584
../Model/Map/Tree/Pine_tree.fbx
<Name> Tree1
<Position> 2019.97 516 7440.49
<Rotation> 0 0 0
<TextureIndex> 8 9
<Pivot> 0 0 0
<Extent> 31.2523 54.4631 35.9197
../Model/Map/Tree/pine2b.fbx
<Name> Tree2
<Position> 2490.3 516 8263.24
<Rotation> 0 0 0
<TextureIndex> 10 11
<Pivot> 0 0 0
<Extent> 69.1326 64.6342 69.5584
../Model/Map/Tree/Pine_tree.fbx
<Name> Tree1
<Position> 2046.48 516 8644.47
<Rotation> 0 0 0
<TextureIndex> 8 9
<Pivot> 0 0 0
<Extent> 31.2523 54.4631 35.9197
../Model/Map/Tree/pine2b.fbx
<Name> Tree2
<Position> 1590.64 516 9061.22
<Rotation> 0 0 0
<TextureIndex> 10 11
<Pivot> 0 0 0
<Extent> 69.1326 64.6342 69.5584
../Model/Map/Tree/Pine_tree.fbx
<Name> Tree1
<Position> 1292.37 516 9535.48
<Rotation> 0 0 0
<TextureIndex> 8 9
<Pivot> 0 0 0
<Extent> 31.2523 54.4631 35.9197
../Model/Map/Tree/pine2b.fbx
<Name> Tree2
<Position> 970.742 516 9340.94
<Rotation> 0 0 0
<TextureIndex> 10 11
<Pivot> 0 0 0
<Extent> 69.1326 64.6342 69.5584
../Model/Map/Tree/Pine_tree.fbx
<Name> Tree1
<Position> 607.12 516 9592.22
<Rotation> 0 0 0
<TextureIndex> 8 9
<Pivot> 0 0 0
<Extent> 31.2523 54.4631 35.9197
../Model/Map/Tree/pine2b.fbx
<Name> Tree2
<Position> 264.846 516 9346.78
<Rotation> 0 0 0
<TextureIndex> 10 11
<Pivot> 0 0 0
<Extent> 69.1326 64.6342 69.5584
../Model/Map/Tree/Pine_tree.fbx
<Name> Tree1
<Position> 1254.36 516 5487.85
<Rotation> 0 0 0
<TextureIndex> 8 9
<Pivot> 0 0 0
<Extent> 31.2523 54.4631 35.9197
../Model/Map/Tree/pine2b.fbx
<Name> Tree2
<Position> 1105.5 516 5905.9
<Rotation> 0 0 0
<TextureIndex> 10 11
<Pivot> 0 0 0
<Extent> 69.1326 64.6342 69.5584
../Model/Map/Tree/Pine_tree.fbx
<Name> Tree1
<Position> 2069.71 516 5794.31
<Rotation> 0 0 0
<TextureIndex> 8 9
<Pivot> 0 0 0
<Extent> 31.2523 54.4631 35.9197
../Model/Map/Tree/pine2b.fbx
<Name> Tree2
<Position> 1903.25 516 9361.04
<Rotation> 0 0 0
<TextureIndex> 10 11
<Pivot> 0 0 0
<Extent> 69.1326 64.6342 69.5584
../Model/Map/Tree/Pine_tree.fbx
<Name> Tree1
<Position> 2141.49 516 9042.28
<Rotation> 0 0 0
<TextureIndex> 8 9
<Pivot> 0 0 0
<Extent> 31.2523 54.4631 35.9197
../Model/Map/Tree/pine2b.fbx
<Name> Tree2
<Position> 2359.07 516 9568.98
<Rotation> 0 0 0
<TextureIndex> 10 11
<Pivot> 0 0 0
<Extent> 69.1326 64.6342 69.5584
../Model/Map/Tree/Pine_tree.fbx
<Name> Tree1
<Position> 2576.83 516 8689.03
<Rotation> 0 0 0
<TextureIndex> 8 9
<Pivot> 0 0 0
<Extent> 31.2523 54.4631 35.9197
../Model/Map/Tree/pine2b.fbx
<Name> Tree2
<Position> 2987.61 516 8891.43
<Rotation> 0 0 0
<TextureIndex> 10 11
<Pivot> 0 0 0
<Extent> 69.1326 64.6342 69.5584
../Model/Map/Tree/Pine_tree.fbx
<Name> Tree1
<Position> 3100.04 516 9457.09
<Rotation> 0 0 0
<TextureIndex> 8 9
<Pivot> 0 0 0
<Extent> 31.2523 54.4631 35.9197
../Model/Map/Tree/pine2b.fbx
<Name> Tree2
<Position> 3527.6 516 9530.81
<Rotation> 0 0 0
<TextureIndex> 10 11
<Pivot> 0 0 0
<Extent> 69.1326 64.6342 69.5584
../Model/Map/Tree/Pine_tree.fbx
<Name> Tree1
<Position> 3873.55 516 8691.52
<Rotation> 0 0 0
<TextureIndex> 8 9
<Pivot> 0 0 0
<Extent> 31.2523 54.4631 35.9197
../Model/Map/Tree/pine2b.fbx
<Name> Tree2
<Position> 4301.82 516 9592.96
<Rotation> 0 0 0
<TextureIndex> 10 11
<Pivot> 0 0 0
<Extent> 69.1326 64.6342 69.5584
../Model/Map/Tree/Pine_tree.fbx
<Name> Tree1
<Position> 4683.9 516 9481.15
<Rotation> 0 0 0
<TextureIndex> 8 9
<Pivot> 0 0 0
<Extent> 31.2523 54.4631 35.9197
../Model/Map/Tree/pine2b.fbx
<Name> Tree2
<Position> 4986.22 516 9268.11
<Rotation> 0 0 0
<TextureIndex> 10 11
<Pivot> 0 0 0
<Extent> 69.1326 64.6342 69.5584
../Model/Map/Tree/Pine_tree.fbx
<Name> Tree1
<Position> 7351.71 516 9609.09
<Rotation> 0 0 0
<TextureIndex> 8 9
<Pivot> 0 0 0
<Extent> 31.2523 54.4631 35.9197
../Model/Map/Tree/pine2b.fbx
<Name> Tree2
<Position> 7905.67 516 9681.67
<Rotation> 0 0 0
<TextureIndex> 10 11
<Pivot> 0 0 0
<Extent> 69.1326 64.6342 69.5584
../Model/Map/Tree/Pine_tree.fbx
<Name> Tree1
<Position> 8375.27 516 9632.68
<Rotation> 0 0 0
<TextureIndex> 8 9
<Pivot> 0 0 0
<Extent> 31.2523 54.4631 35.9197
../Model/Map/Tree/pine2b.fbx
<Name> Tree2
<Position> 8836.17 516 9576.19
<Rotation> 0 0 0
<TextureIndex> 10 11
<Pivot> 0 0 0
<Extent> 69.1326 64.6342 69.5584
../Model/Map/Tree/Pine_tree.fbx
<Name> Tree1
<Position> 9141.08 516 9606.61
<Rotation> 0 0 0
<TextureIndex> 8 9
<Pivot> 0 0 0
<Extent> 31.2523 54.4631 35.9197
../Model/Map/Tree/pine2b.fbx
<Name> Tree2
<Position> 9595.59 516 9592.74
<Rotation> 0 0 0
<TextureIndex> 10 11
<Pivot> 0 0 0
<Extent> 69.1326 64.6342 69.5584
../Model/Map/Tree/Pine_tree.fbx
<Name> Tree1
<Position> 9575.36 516 9248.34
<Rotation> 0 0 0
<TextureIndex> 8 9
<Pivot> 0 0 0
<Extent> 31.2523 54.4631 35.9197
../Model/Map/Tree/pine2b.fbx
<Name> Tree2
<Position> 9587.85 516 8592.23
<Rotation> 0 0 0
<TextureIndex> 10 11
<Pivot> 0 0 0
<Extent> 69.1326 64.6342 69.5584
../Model/Map/Tree/Pine_tree.fbx
<Name> Tree1
<Position> 7853.2 516 8896.53
<Rotation> 0 0 0
<TextureIndex> 8 9
<Pivot> 0 0 0
<Extent> 31.2523 54.4631 35.9197
../Model/Map/Tree/pine2b.fbx
<Name> Tree2
<Position> 7798.35 516 8537.99
<Rotation> 0 0 0
<TextureIndex> 10 11
<Pivot> 0 0 0
<Extent> 69.1326 64.6342 69.5584
../Model/Map/Tree/Pine_tree.fbx
<Name> Tree1
<Position> 7447.64 516 8269.39
<Rotation> 0 0 0
<TextureIndex> 8 9
<Pivot> 0 0 0
<Extent> 31.2523 54.4631 35.9197
../Model/Map/Tree/pine2b.fbx
<Name> Tree2
<Position> 7504.14 516 7957.86
<Rotation> 0 0 0
<TextureIndex> 10 11
<Pivot> 0 0 0
<Extent> 69.1326 64.6342 69.5584
../Model/Map/Tree/Pine_tree.fbx
<Name> Tree1
<Position> 9213.06 516 7723.91
<Rotation> 0 0 0
<TextureIndex> 8 9
<Pivot> 0 0 0
<Extent> 31.2523 54.4631 35.9197
../Model/Map/Tree/pine2b.fbx
<Name> Tree2
<Position> 9666.46 516 7543.87
<Rotation> 0 0 0
<TextureIndex> 10 11
<Pivot> 0 0 0
<Extent> 69.1326 64.6342 69.5584
../Model/Map/Tree/Pine_tree.fbx
<Name> Tree1
<Position> 9534.71 516 7023.34
<Rotation> 0 0 0
<TextureIndex> 8 9
<Pivot> 0 0 0
<Extent> 31.2523 54.4631 35.9197
../Model/Map/Tree/pine2b.fbx
<Name> Tree2
<Position> 8873.89 516 7092.33
<Rotation> 0 0 0
<TextureIndex> 10 11
<Pivot> 0 0 0
<Extent> 69.1326 64.6342 69.5584
../Model/Map/Tree/Pine_tree.fbx
<Name> Tree1
<Position> 8710.15 516 6657.1
<Rotation> 0 0 0
<TextureIndex> 8 9
<Pivot> 0 0 0
<Extent> 31.2523 54.4631 35.9197
../Model/Map/Tree/pine2b.fbx
<Name> Tree2
<Position> 9372.15 516 6729.1
<Rotation> 0 0 0
<TextureIndex> 10 11
<Pivot> 0 0 0
<Extent> 69.1326 64.6342 69.5584
../Model/Map/Tree/Pine_tree.fbx
<Name> Tree1
<Position> 9745.94 516 6205.96
<Rotation> 0 0 0
<TextureIndex> 8 9
<Pivot> 0 0 0
<Extent> 31.2523 54.4631 35.9197
../Model/Map/Tree/pine2b.fbx
<Name> Tree2
<Position> 9423.46 516 5924.4
<Rotation> 0 0 0
<TextureIndex> 10 11
<Pivot> 0 0 0
<Extent> 69.1326 64.6342 69.5584
../Model/Map/Tree/Pine_tree.fbx
<Name> Tree1
<Position> 8949.87 516 6001.93
<Rotation> 0 0 0
<TextureIndex> 8 9
<Pivot> 0 0 0
<Extent> 31.2523 54.4631 35.9197
../Model/Map/Tree/pine2b.fbx
<Name> Tree2
<Position> 9089.72 516 6292.22
<Rotation> 0 0 0
<TextureIndex> 10 11
<Pivot> 0 0 0
<Extent> 69.1326 64.6342 69.5584
../Model/Map/Tree/Pine_tree.fbx
<Name> Tree1
<Position> 8936.37 516 5597.17
<Rotation> 0 0 0
<TextureIndex> 8 9
<Pivot> 0 0 0
<Extent> 31.2523 54.4631 35.9197
../Model/Map/Tree/pine2b.fbx
<Name> Tree2
<Position> 9339.01 516 5218.54
<Rotation> 0 0 0
<TextureIndex> 10 11
<Pivot> 0 0 0
<Extent> 69.1326 64.6342 69.5584
../Model/Map/Tree/Pine_tree.fbx
<Name> Tree1
<Position> 9666.87 516 4946.35
<Rotation> 0 0 0
<TextureIndex> 8 9
<Pivot> 0 0 0
<Extent> 31.2523 54.4631 35.9197
../Model/Map/Tree/pine2b.fbx
<Name> Tree2
<Position> 9129.25 516 4730.38
<Rotation> 0 0 0
<TextureIndex> 10 11
<Pivot> 0 0 0
<Extent> 69.1326 64.6342 69.5584
../Model/Map/Tree/Pine_tree.fbx
<Name> Tree1
<Position> 9175.32 516 4354.12
<Rotation> 0 0 0
<TextureIndex> 8 9
<Pivot> 0 0 0
<Extent> 31.2523 54.4631 35.9197
../Model/Map/Tree/pine2b.fbx
<Name> Tree2
<Position> 9653.82 516 4380.07
<Rotation> 0 0 0
<TextureIndex> 10 11
<Pivot> 0 0 0
<Extent> 69.1326 64.6342 69.5584
../Model/Map/Tree/Pine_tree.fbx
<Name> Tree1
<Position> 9557.97 516 3569.26
<Rotation> 0 0 0
<TextureIndex> 8 9
<Pivot> 0 0 0
<Extent> 31.2523 54.4631 35.9197
../Model/Map/Tree/pine2b.fbx
<Name> Tree2
<Position> 9303.49 516 3794.85
<Rotation> 0 0 0
<TextureIndex> 10 11
<Pivot> 0 0 0
<Extent> 69.1326 64.6342 69.5584
../Model/Map/Tree/Pine_tree.fbx
<Name> Tree1
<Position> 9229.19 516 3374.29
<Rotation> 0 0 0
<TextureIndex> 8 9
<Pivot> 0 0 0
<Extent> 31.2523 54.4631 35.9197
../Model/Map/Tree/pine2b.fbx
<Name> Tree2
<Position> 9365.16 516 3192.35
<Rotation> 0 0 0
<TextureIndex> 10 11
<Pivot> 0 0 0
<Extent> 69.1326 64.6342 69.5584
../Model/Map/Tree/Pine_tree.fbx
<Name> Tree1
<Position> 9674.94 516 3303.45
<Rotation> 0 0 0
<TextureIndex> 8 9
<Pivot> 0 0 0
<Extent> 31.2523 54.4631 35.9197
../Model/Map/Tree/pine2b.fbx
<Name> Tree2
<Position> 9445.53 516 2709.02
<Rotation> 0 0 0
<TextureIndex> 10 11
<Pivot> 0 0 0
<Extent> 69.1326 64.6342 69.5584
../Model/Map/Tree/Pine_tree.fbx
<Name> Tree1
<Position> 9740.52 516 2628.84
<Rotation> 0 0 0
<TextureIndex> 8 9
<Pivot> 0 0 0
<Extent> 31.2523 54.4631 35.9197
../Model/Map/Tree/pine2b.fbx
<Name> Tree2
<Position> 9708.28 516 2141.82
<Rotation> 0 0 0
<TextureIndex> 10 11
<Pivot> 0 0 0
<Extent> 69.1326 64.6342 69.5584
../Model/Map/Tree/Pine_tree.fbx
<Name> Tree1
<Position> 9200.48 516 2226.35
<Rotation> 0 0 0
<TextureIndex> 8 9
<Pivot> 0 0 0
<Extent> 31.2523 54.4631 35.9197
../Model/Map/Tree/pine2b.fbx
<Name> Tree2
<Position> 9563.11 516 1813.17
<Rotation> 0 0 0
<TextureIndex> 10 11
<Pivot> 0 0 0
<Extent> 69.1326 64.6342 69.5584
../Model/Map/Tree/Pine_tree.fbx
<Name> Tree1
<Position> 9240.83 516 1303.49
<Rotation> 0 0 0
<TextureIndex> 8 9
<Pivot> 0 0 0
<Extent> 31.2523 54.4631 35.9197
../Model/Map/Tree/pine2b.fbx
<Name> Tree2
<Position> 8881.27 516 1471.63
<Rotation> 0 0 0
<TextureIndex> 10 11
<Pivot> 0 0 0
<Extent> 69.1326 64.6342 69.5584
../Model/Map/Tree/Pine_tree.fbx
<Name> Tree1
<Position> 8787.2 516 964.37
<Rotation> 0 0 0
<TextureIndex> 8 9
<Pivot> 0 0 0
<Extent> 31.2523 54.4631 35.9197
../Model/Map/Tree/pine2b.fbx
<Name> Tree2
<Position> 9304.25 516 684.065
<Rotation> 0 0 0
<TextureIndex> 10 11
<Pivot> 0 0 0
<Extent> 69.1326 64.6342 69.5584
../Model/Map/Tree/Pine_tree.fbx
<Name> Tree1
<Position> 9682.01 516 855.049
<Rotation> 0 0 0
<TextureIndex> 8 9
<Pivot> 0 0 0
<Extent> 31.2523 54.4631 35.9197
../Model/Map/Tree/pine2b.fbx
<Name> Tree2
<Position> 9699.72 516 402.014
<Rotation> 0 0 0
<TextureIndex> 10 11
<Pivot> 0 0 0
<Extent> 69.1326 64.6342 69.5584
../Model/Map/Tree/Pine_tree.fbx
<Name> Tree1
<Position> 9186.01 516 283.242
<Rotation> 0 0 0
<TextureIndex> 8 9
<Pivot> 0 0 0
<Extent> 31.2523 54.4631 35.9197
../Model/Map/Tree/pine2b.fbx
<Name> Tree2
<Position> 8605.68 516 361.29
<Rotation> 0 0 0
<TextureIndex> 10 11
<Pivot> 0 0 0
<Extent> 69.1326 64.6342 69.5584
../Model/Map/Tree/Pine_tree.fbx
<Name> Tree1
<Position> 8276.21 516 865.266
<Rotation> 0 0 0
<TextureIndex> 8 9
<Pivot> 0 0 0
<Extent> 31.2523 54.4631 35.9197
../Model/Map/Tree/pine2b.fbx
<Name> Tree2
<Position> 8101.7 516 308.122
<Rotation> 0 0 0
<TextureIndex> 10 11
<Pivot> 0 0 0
<Extent> 69.1326 64.6342 69.5584
../Model/Map/Tree/Pine_tree.fbx
<Name> Tree1
<Position> 7491.29 516 498.252
<Rotation> 0 0 0
<TextureIndex> 8 9
<Pivot> 0 0 0
<Extent> 31.2523 54.4631 35.9197
../Model/Map/Tree/pine2b.fbx
<Name> Tree2
<Position> 7872.9 516 1070.73
<Rotation> 0 0 0
<TextureIndex> 10 11
<Pivot> 0 0 0
<Extent> 69.1326 64.6342 69.5584
../Model/Map/Tree/Pine_tree.fbx
<Name> Tree1
<Position> 7177.69 516 360.355
<Rotation> 0 0 0
<TextureIndex> 8 9
<Pivot> 0 0 0
<Extent> 31.2523 54.4631 35.9197
../Model/Map/Tree/pine2b.fbx
<Name> Tree2
<Position> 7236.86 516 790.522
<Rotation> 0 0 0
<TextureIndex> 10 11
<Pivot> 0 0 0
<Extent> 69.1326 64.6342 69.5584
../Model/Map/Tree/Pine_tree.fbx
<Name> Tree1
<Position> 7366.42 516 1355.82
<Rotation> 0 0 0
<TextureIndex> 8 9
<Pivot> 0 0 0
<Extent> 31.2523 54.4631 35.9197
../Model/Map/Tree/pine2b.fbx
<Name> Tree2
<Position> 7484.07 516 1921.57
<Rotation> 0 0 0
<TextureIndex> 10 11
<Pivot> 0 0 0
<Extent> 69.1326 64.6342 69.5584
../Model/Map/Tree/Pine_tree.fbx
<Name> Tree1
<Position> 7768.63 516 1712.42
<Rotation> 0 0 0
<TextureIndex> 8 9
<Pivot> 0 0 0
<Extent> 31.2523 54.4631 35.9197
../Model/Map/Tree/pine2b.fbx
<Name> Tree2
<Position> 8281.85 516 1885.2
<Rotation> 0 0 0
<TextureIndex> 10 11
<Pivot> 0 0 0
<Extent> 69.1326 64.6342 69.5584
../Model/Map/Tree/Pine_tree.fbx
<Name> Tree1
<Position> 8705.28 516 2594.53
<Rotation> 0 0 0
<TextureIndex> 8 9
<Pivot> 0 0 0
<Extent> 31.2523 54.4631 35.9197
../Model/Map/Tree/pine2b.fbx
<Name> Tree2
<Position> 8588.37 516 3166.29
<Rotation> 0 0 0
<TextureIndex> 10 11
<Pivot> 0 0 0
<Extent> 69.1326 64.6342 69.5584
../Model/Map/Tree/Pine_tree.fbx
<Name> Tree1
<Position> 6319.87 516 1336.97
<Rotation> 0 0 0
<TextureIndex> 8 9
<Pivot> 0 0 0
<Extent> 31.2523 54.4631 35.9197
../Model/Map/Tree/pine2b.fbx
<Name> Tree2
<Position> 6229.18 516 760.148
<Rotation> 0 0 0
<TextureIndex> 10 11
<Pivot> 0 0 0
<Extent> 69.1326 64.6342 69.5584
../Model/Map/Tree/Pine_tree.fbx
<Name> Tree1
<Position> 6042.17 516 319.829
<Rotation> 0 0 0
<TextureIndex> 8 9
<Pivot> 0 0 0
<Extent> 31.2523 54.4631 35.9197
../Model/Map/Tree/pine2b.fbx
<Name> Tree2
<Position> 5505.94 516 285.112
<Rotation> 0 0 0
<TextureIndex> 10 11
<Pivot> 0 0 0
<Extent> 69.1326 64.6342 69.5584
../Model/Map/Tree/Pine_tree.fbx
<Name> Tree1
<Position> 4749.19 516 260.336
<Rotation> 0 0 0
<TextureIndex> 8 9
<Pivot> 0 0 0
<Extent> 31.2523 54.4631 35.9197
../Model/Map/Tree/pine2b.fbx
<Name> Tree2
<Position> 4273.22 516 582.486
<Rotation> 0 0 0
<TextureIndex> 10 11
<Pivot> 0 0 0
<Extent> 69.1326 64.6342 69.5584
../Model/Map/Tree/Pine_tree.fbx
<Name> Tree1
<Position> 3867.47 516 210.783
<Rotation> 0 0 0
<TextureIndex> 8 9
<Pivot> 0 0 0
<Extent> 31.2523 54.4631 35.9197
../Model/Map/Tree/pine2b.fbx
<Name> Tree2
<Position> 3867.47 516 1460.58
<Rotation> 0 0 0
<TextureIndex> 10 11
<Pivot> 0 0 0
<Extent> 69.1326 64.6342 69.5584
../Model/Map/Tree/Pine_tree.fbx
<Name> Tree1
<Position> 4276.42 516 1679.88
<Rotation> 0 0 0
<TextureIndex> 8 9
<Pivot> 0 0 0
<Extent> 31.2523 54.4631 35.9197
../Model/Map/Tree/pine2b.fbx
<Name> Tree2
<Position> 4632.91 516 1305.89
<Rotation> 0 0 0
<TextureIndex> 10 11
<Pivot> 0 0 0
<Extent> 69.1326 64.6342 69.5584
../Model/Map/Tree/Pine_tree.fbx
<Name> Tree1
<Position> 5081.5 516 980.344
<Rotation> 0 0 0
<TextureIndex> 8 9
<Pivot> 0 0 0
<Extent> 31.2523 54.4631 35.9197
../Model/Map/Tree/pine2b.fbx
<Name> Tree2
<Position> 5531.17 516 859.266
<Rotation> 0 0 0
<TextureIndex> 10 11
<Pivot> 0 0 0
<Extent> 69.1326 64.6342 69.5584
../Model/Map/Tree/Pine_tree.fbx
<Name> Tree1
<Position> 4786.55 516 1894.04
<Rotation> 0 0 0
<TextureIndex> 8 9
<Pivot> 0 0 0
<Extent> 31.2523 54.4631 35.9197
../Model/Map/Tree/pine2b.fbx
<Name> Tree2
<Position> 5620.7 516 2838.66
<Rotation> 0 0 0
<TextureIndex> 10 11
<Pivot> 0 0 0
<Extent> 69.1326 64.6342 69.5584
../Model/Map/Tree/Pine_tree.fbx
<Name> Tree1
<Position> 5294.97 516 3472.58
<Rotation> 0 0 0
<TextureIndex> 8 9
<Pivot> 0 0 0
<Extent> 31.2523 54.4631 35.9197
../Model/Map/Tree/pine2b.fbx
<Name> Tree2
<Position> 4813.56 516 3983.64
<Rotation> 0 0 0
<TextureIndex> 10 11
<Pivot> 0 0 0
<Extent> 69.1326 64.6342 69.5584
../Model/Map/Tree/Pine_tree.fbx
<Name> Tree1
<Position> 5325.49 516 4627.03
<Rotation> 0 0 0
<TextureIndex> 8 9
<Pivot> 0 0 0
<Extent> 31.2523 54.4631 35.9197
../Model/Map/Tree/pine2b.fbx
<Name> Tree2
<Position> 5761.16 516 4153.52
<Rotation> 0 0 0
<TextureIndex> 10 11
<Pivot> 0 0 0
<Extent> 69.1326 64.6342 69.5584
../Model/Map/Tree/Pine_tree.fbx
<Name> Tree1
<Position> 6037.99 516 3755.21
<Rotation> 0 0 0
<TextureIndex> 8 9
<Pivot> 0 0 0
<Extent> 31.2523 54.4631 35.9197
../Model/Map/Tree/pine2b.fbx
<Name> Tree2
<Position> 3410.96 516 9008.21
<Rotation> 0 0 0
<TextureIndex> 10 11
<Pivot> 0 0 0
<Extent> 69.1326 64.6342 69.5584
../Model/Map/Tree/Pine_tree.fbx
<Name> Tree1
<Position> 8685.18 516 4537.35
<Rotation> 0 0 0
<TextureIndex> 8 9
<Pivot> 0 0 0
<Extent> 31.2523 54.4631 35.9197
../Model/Map/Tree/pine2b.fbx
<Name> Tree2
<Position> 8595.11 516 4119.34
<Rotation> 0 0 0
<TextureIndex> 10 11
<Pivot> 0 0 0
<Extent> 69.1326 64.6342 69.5584
../Model/Map/Tree/Pine_tree.fbx
<Name> Tree1
<Position> 8568.8 516 3680.29
<Rotation> 0 0 0
<TextureIndex> 8 9
<Pivot> 0 0 0
<Extent> 31.2523 54.4631 35.9197
../Model/Map/Tree/pine2b.fbx
<Name> Tree2
<Position> 8028.03 516 3829.29
<Rotation> 0 0 0
<TextureIndex> 10 11
<Pivot> 0 0 0
<Extent> 69.1326 64.6342 69.5584
../Model/Map/Tree/Pine_tree.fbx
<Name> Tree1
<Position> 7927.13 516 4269.45
<Rotation> 0 0 0
<TextureIndex> 8 9
<Pivot> 0 0 0
<Extent> 31.2523 54.4631 35.9197
../Model/Map/Tree/pine2b.fbx
<Name> Tree2
<Position> 7309.55 516 4255.03
<Rotation> 0 0 0
<TextureIndex> 10 11
<Pivot> 0 0 0
<Extent> 69.1326 64.6342 69.5584
../Model/Map/Tree/Pine_tree.fbx
<Name> Tree1
<Position> 7799.7 516 2448.74
<Rotation> 0 0 0
<TextureIndex> 8 9
<Pivot> 0 0 0
<Extent> 31.2523 54.4631 35.9197
../Model/Map/Tree/pine2b.fbx
<Name> Tree2
<Position> 8714.46 516 2083.78
<Rotation> 0 0 0
<TextureIndex> 10 11
<Pivot> 0 0 0
<Extent> 69.1326 64.6342 69.5584
../Model/Map/Tree/Pine_tree.fbx
<Name> Tree1
<Position> 6818.23 516 1905.39
<Rotation> 0 0 0
<TextureIndex> 8 9
<Pivot> 0 0 0
<Extent> 31.2523 54.4631 35.9197
../Model/Map/Tree/pine2b.fbx
<Name> Tree2
<Position> 6733.81 516 1056.59
<Rotation> 0 0 0
<TextureIndex> 10 11
<Pivot> 0 0 0
<Extent> 69.1326 64.6342 69.5584
../Model/Map/Tree/Pine_tree.fbx
<Name> Tree1
<Position> 6699.54 516 517.599
<Rotation> 0 0 0
<TextureIndex> 8 9
<Pivot> 0 0 0
<Extent> 31.2523 54.4631 35.9197
../Model/Map/Tree/pine2b.fbx
<Name> Tree2
<Position> 5423.4 516 3862.04
<Rotation> 0 0 0
<TextureIndex> 10 11
<Pivot> 0 0 0
<Extent> 69.1326 64.6342 69.5584
../Model/Map/Tree/Pine_tree.fbx
<Name> Tree1
<Position> 3843.45 516 1920.71
<Rotation> 0 0 0
<TextureIndex> 8 9
<Pivot> 0 0 0
<Extent> 31.2523 54.4631 35.9197
../Model/Map/Tree/pine2b.fbx
<Name> Tree2
<Position> 3807.42 516 668.028
<Rotation> 0 0 0
<TextureIndex> 10 11
<Pivot> 0 0 0
<Extent> 69.1326 64.6342 69.5584
../Model/Map/Tree/Pine_tree.fbx
<Name> Tree1
<Position> 4784.98 516 775.945
<Rotation> 0 0 0
<TextureIndex> 8 9
<Pivot> 0 0 0
<Extent> 31.2523 54.4631 35.9197
../Model/Map/Tree/pine2b.fbx
<Name> Tree2
<Position> 305.748 516 1416.95
<Rotation> 0 0 0
<TextureIndex> 10 11
<Pivot> 0 0 0
<Extent> 69.1326 64.6342 69.5584
../Model/Map/Tree/Pine_tree.fbx
<Name> Tree1
<Position> 188.984 516 1927.82
<Rotation> 0 0 0
<TextureIndex> 8 9
<Pivot> 0 0 0
<Extent> 31.2523 54.4631 35.9197
../Model/Map/Tree/pine2b.fbx
<Name> Tree2
<Position> 228.665 516 2814.69
<Rotation> 0 0 0
<TextureIndex> 10 11
<Pivot> 0 0 0
<Extent> 69.1326 64.6342 69.5584
../Model/Map/Tree/Pine_tree.fbx
<Name> Tree1
<Position> 1077.95 516 8726.02
<Rotation> 0 0 0
<TextureIndex> 8 9
<Pivot> 0 0 0
<Extent> 31.2523 54.4631 35.9197
<ModelDataEnd>
